runAcc	exprAcc	sampleAcc	runSubmissionAcc	sraStatus	sraInfo	study	center	sampleBarcode	metadataState	metadataDesc	metadataGitId	downloadedState	downloadedDesc	cghubState	cghubDesc	analysisId	allRunAccs	allExprAccs	downloadedDir
SRR529541	SRX171646	SRS270713	SRA058595	live		TARGET (AML)	CompleteGenomics	TARGET-20-PARDDY-14A-01D	error	noMetadata		error	partialChromSplitBam	ok	notLoaded		SRR529541,SRR529542,SRR529543,SRR529544,SRR529545,SRR529546,SRR529547	SRX171646	master/phs000218/AML/TARGET-20-PARDDY/unknown_sample_type/TARGET-20-PARDDY-14A-01D/SRX171646/SRR529541_processed
SRR641177	SRX213073	SRS382218	SRA063302	live		TARGET (PPTP)	CompleteGenomics	TARGET-30-PAMYEF-50.1A-01D	ok	OK	d4a63701-bb8e-5525-b8d9-7141a2bf48e0	error	partialChromSplitBam	ok	notLoaded		SRR641177,SRR641178,SRR641179,SRR641180,SRR641181,SRR641182,SRR641183,SRR641184	SRX213073	master/phs000218/PPTP/TARGET-30-PAMYEF/tumor_sample/TARGET-30-PAMYEF-50.1A-01D/SRX213073
