seq_label	accession
chr1	NC_000001.9
chr2	NC_000002.10
chr3	NC_000003.10
chr4	NC_000004.10
chr5	GPC_000000394.1
chr6	NC_000006.10
chr7	NC_000007.12
chr8	NC_000008.9
chr9	NC_000009.10
chr10	NC_000010.9
chr11	NC_000011.8
chr12	NC_000012.10
chr13	NC_000013.9
chr14	NC_000014.7
chr15	NC_000015.8
chr16	NC_000016.8
chr17	NC_000017.9
chr18	NC_000018.8
chr19	NC_000019.8
chr20	NC_000020.9
chr21	NC_000021.7
chr22	NC_000022.9
chrX	NC_000023.9
chrY	GPC_000000395.1
chrM	NC_001807.4
chrMT	NC_001807.4

