GS00396-DNA_H02.bam	22a0c94f2de659bf41d2b83cd7b37242
GS00426-DNA_G01.bam	90fd2c543d43d1af37b5fdeac7deb232
GS00822-DNA_D08.bam	5682a34fd6aa22d0633e0cd08d131a20
GS00823-DNA_D07.bam	ff2b651bc62e4c08df0461304aeefb05
GS00823-DNA_F02.bam	4c9158a441f81ce34fcc2858c80538cb
GS00823-DNA_F07.bam	3aaa2ce7af49551e3ec8c28b0b031bf5
GS00824-DNA_H01.bam	8981df398f6d110744e46f41f35dadaf
GS00827-DNA_E03.bam	362a75c70d678bd7dc6d100353b61d52
GS00827-DNA_H07.bam	a376d10fd85f27af4fd66307bdee4fd3
GS00828-DNA_A02.bam	7f4af39694efd859af778b3f534e2be8
GS00828-DNA_B02.bam	842cf1bd824d976b4ff85ef4f95b1148
GS00828-DNA_C04.bam	1b8f63bccef603339d4ed4bfa033d141
GS00828-DNA_D05.bam	f983776b77372d375425999d3731a8a0
GS00830-DNA_G07.bam	87135c9463358bd66a8ff45d5cc35214
GS01673-DNA_B04.bam	98957f826326e210b5939a08bfa296ef
GS01673-DNA_D01.bam	f586523c276fd702919e8bc37cc28172
GS01673-DNA_D10.bam	7aafa855453866d0b937c2afdbefe5ce
GS01673-DNA_D11.bam	ad5a3248b4be774fb343ec0c57fdbeef
GS01673-DNA_E01.bam	a1ee268e03ba4374ae68c935199d304b
GS01673-DNA_E10.bam	5c6de8d5e6f5b9b45678106976644e76
GS01673-DNA_E11.bam	c7cae79d70ef612917106096a21d656f
GS01673-DNA_F01.bam	7c3fcf9a238d7473f4ed258c49a86552
GS01681-DNA_A07.bam	785d4de3ac5d0f739c19d148ff9192a7
GS01681-DNA_H02.bam	08e8b12ab51597eed71562d02920e3bb
GS01861-DNA_C03.bam	e3ac4c2069d6caa9f5525ada31299cbe
GS02330-DNA_A01.bam	06223ec8e758f40c8ce19a8b76ad4bbb
GS02330-DNA_A02.bam	6009f7229533c45cba792241112a0e61
GS02330-DNA_A03.bam	8c0f1b70cfc05cb8c7d86b630dae55d2
GS02330-DNA_A04.bam	ae43a935f3fa9d5214ac5c9e6ddea123
GS02330-DNA_A05.bam	ffda0f9ad6c206cff071a14432af4429
GS02330-DNA_A06.bam	559f7c1de939220c1abc7f8f50003f1e
GS02330-DNA_B01.bam	9d76dc31ec960431914b98867c3f3826
GS02330-DNA_B02.bam	78e9528cc2fefc0843304aa084efb553
GS02330-DNA_B04.bam	bcce16f5af3bf49d7b98063150256226
GS02330-DNA_B05.bam	4ba69eb378c851701b103923f8db4268
GS02330-DNA_B06.bam	4f1ff1e13a444363584dda3272910969
GS02330-DNA_C02.bam	6e1f0cac0b928bf216a9f781fcb62190
GS02330-DNA_C03.bam	fdf2867f1d493d59a3816607dc318fca
GS02330-DNA_C04.bam	26ef4360a26a56301b2b43efc33b4319
GS02330-DNA_C05.bam	ab5b117b3bf6d59d5855e55ab2cf4217
GS02330-DNA_C06.bam	cba630c5b68f9742d0248aecc0ab99cf
GS02330-DNA_D02.bam	e516938a35dbad993a1a1b6b0a1926fe
GS02330-DNA_D03.bam	1eb4bf9c464d4ff156aa1d2bcc2ceae2
GS02330-DNA_D04.bam	b675ae6f29f404b13b5a81ded2d863e2
GS02330-DNA_D05.bam	ab2dd200a7b455f02bee774421dbdccc
GS02330-DNA_D06.bam	842f617603ff43b88cec41c1584a5640
GS02330-DNA_E01.bam	94395acc6b145112d7cec99978794b25
GS02330-DNA_E02.bam	99303aadf715f600175e5fd2ca13eb7d
GS02330-DNA_E04.bam	cc6cc79abc7ac0a473d976300e4f3292
GS02330-DNA_E05.bam	fad6eef8a87b5643d23b1e82edc615b0
GS02330-DNA_E06.bam	7a6e411d675eebba69ab7f12b09fc512
GS02330-DNA_F01.bam	8afeb3e62364f763e52c4f95708fac26
GS02330-DNA_F03.bam	39742a8bdd9eabea1c14d4d5da851efc
GS02330-DNA_F04.bam	e252fc2b148055dc643ff86e55c199f4
GS02330-DNA_F05.bam	fd01c0585b7e4ee0ce7f123da1f8866c
GS02330-DNA_F06.bam	f572fa82c7b344ab279d164a1df50808
GS02330-DNA_G01.bam	20da4a1158aef5a5fb7f5c1067c15a03
GS02330-DNA_G02.bam	12ba6dcb0388618656665bb366acc201
GS02330-DNA_G03.bam	b5e7ca89090af0bf68b2c6a35bb87533
GS02330-DNA_G04.bam	662d730396e0af1d095db71955cfe05a
GS02330-DNA_G05.bam	fb9719e057a433bb4282eeace4b40562
GS02330-DNA_H01.bam	106ba48ce906e21c0167b7115ddda130
GS02330-DNA_H02.bam	e8d7bb1066d7dd6032f3ec97991e87fb
GS02330-DNA_H03.bam	eff6aede026f1e36d94743b2da0a4262
GS02330-DNA_H05.bam	982a1a89397d9e72b5e688f9b6dee4bc
GS02332-DNA_A01.bam	833c4572e2a79e75ddd63061f4baade0
GS02332-DNA_A02.bam	649a40a5598e1439c2098aa11d8e57cc
GS02332-DNA_A03.bam	35164177cfaa3d29b417598e21e7a979
GS02332-DNA_A04.bam	45ca6b74f7f5e6895d17976a30e979e0
GS02332-DNA_A06.bam	8c7328e91dd782c2ea0c2747497888c8
GS02332-DNA_A07.bam	f4ce67c2e07fe4d84f40386a757224d2
GS02332-DNA_A08.bam	7f79d3f3fe1577327c8405e339a73835
GS02332-DNA_A09.bam	58fdbbbd58aea831447665b5099ee73e
GS02332-DNA_B01.bam	fb01e5a688b1db1d12ce545908fe9864
GS02332-DNA_B02.bam	0423f89b66904db863be2523f4fb1fd4
GS02332-DNA_B03.bam	d4e7551cf7bde59172d036b05e5a2ffb
GS02332-DNA_B05.bam	d018e04dd20fb24edc43179fb34a9bfe
GS02332-DNA_B06.bam	87b88a9c6439eb47af437b2daea75d08
GS02332-DNA_B07.bam	d8c6caa65af12e1cd116376d06b1b6c0
GS02332-DNA_B08.bam	681dcde48c44783db6b214b632370479
GS02332-DNA_B09.bam	677dec55176cbf0321f5dd2c2246da0d
GS02332-DNA_B10.bam	6bdc6aa55f9ac16d2180ec8c3f48f688
GS02332-DNA_B11.bam	a498d2274762c131574c99740121d61b
GS02332-DNA_C01.bam	2d2c034ac593730d19a8933241b99380
GS02332-DNA_C02.bam	949482cc2da99fe2b933de9a75f9fee3
GS02332-DNA_C04.bam	8591c435f694577a3aa63324c0c6d22f
GS02332-DNA_C05.bam	8dca3d5e02d9d06a09f8c17fef43056b
GS02332-DNA_C06.bam	07a1abd8ad5ff79a5f36c49033ab0cdb
GS02332-DNA_C07.bam	b259915638546bda79e1302eb0be7289
GS02332-DNA_C08.bam	c5aa030a1dfdf6895ce8f0f339c6f981
GS02332-DNA_C09.bam	7a9a7682707a301bebdaa353eea1ed6f
GS02332-DNA_C10.bam	b7d38c1751d70af261845a4f375a79e3
GS02332-DNA_C11.bam	abdb646be7082e3394d25735fcb2d389
GS02332-DNA_D01.bam	684a2d492162d7df1496a7bdbe662439
GS02332-DNA_D03.bam	e7442c88a02f8d5971494adc448a3969
GS02332-DNA_D04.bam	3dcfef7821f90c825ddaf8f3f9e62cdc
GS02332-DNA_D05.bam	6c742b46776e66e32305d7a82ac8f362
GS02332-DNA_D06.bam	ba2f51ef7733a8273954a0f1e0707cd6
GS02332-DNA_D07.bam	4627d015371438a3583c2913e37db4b9
GS02332-DNA_D08.bam	ea1c1580aada6276f24d3e743142dae0
GS02332-DNA_D09.bam	d0d2d8488d8f043c62e3c29262e62f33
GS02332-DNA_D10.bam	933e59839b0817d280be13805e3f6f49
GS02332-DNA_D11.bam	b73e500b1396fb4739f9e5391ba41858
GS02332-DNA_E01.bam	7852b095f8416fdabaaf151f327f1a3c
GS02332-DNA_E02.bam	cd0aa7f95b4f53e9845e363fe1b4408e
GS02332-DNA_E03.bam	95de38861228f407b981168bf037d9d2
GS02332-DNA_E04.bam	c813f2faa8aeb8e1b9293254cba60290
GS02332-DNA_E05.bam	27ef24b90e92b66aa287660fcd6894a6
GS02332-DNA_E06.bam	218e7296cc23dbb6fe2efe8ebb65d56d
GS02332-DNA_E07.bam	364d4977e48b5010790c4854417f71ad
GS02332-DNA_E08.bam	ce066274c80dd86e092dfefb9ab457dc
GS02332-DNA_E09.bam	8e3aa961b0ad4db4b01f70e905e3efd4
GS02332-DNA_E10.bam	bfb3c00a45ee1b4d62fcfed56cc9d7af
GS02332-DNA_E11.bam	705d178cda415bb2fd7fcfdef2a1536b
GS02332-DNA_F03.bam	55f27ed08c29803ed4d4699eea1b931e
GS02332-DNA_F05.bam	3d3102e00fa6f6645f1e20e5ed38cb88
GS02332-DNA_F06.bam	030eddedb64f986bcdd96c02b91939a9
GS02332-DNA_F07.bam	0cad61a76b7be88f6cb552e3b0a1db85
GS02332-DNA_F09.bam	553a9ca56943ae3a46749a6a4b300a15
GS02332-DNA_F10.bam	8e61568fdb470d01177f9e7ed3314f7e
GS02332-DNA_F11.bam	bb1a68df67c5f09dfc9daa1cdebce512
GS02332-DNA_G02.bam	a0127a5f71f09247fee1945ab0e8a5b4
GS02332-DNA_G03.bam	1856dba4d79a1e7c9df7aa5790769d84
GS02332-DNA_G05.bam	46509fd7b1ae6b5b493be0b1c4d345de
GS02332-DNA_G08.bam	52ee58e1855cc040179d5e79aa3ba471
GS02332-DNA_G09.bam	2b14223574ff05063f0fea798ed11e46
GS02332-DNA_G10.bam	3395dc3d3510c868d528e2276a2797ed
GS02332-DNA_G11.bam	7d61e68f01ef4de5493c8870c671d9fd
GS02332-DNA_H02.bam	f92bbf9ef42d2b3ce99155965bc92a73
GS02332-DNA_H03.bam	7a14bf8871bc674502f7aa74563fd611
GS02332-DNA_H06.bam	9afba09507ea245b124f9a25791ec71f
GS02332-DNA_H08.bam	1efa24288331dc03f431e175c72f6e88
GS02332-DNA_H10.bam	d467ed65d6ddffab8aefe2269fa92c8e
GS02332-DNA_H11.bam	56980aed5d7a7d8554c12283755b89bc
GS02333-DNA_A02.bam	39f0c8ac9396a83beda3854b3f692128
GS02333-DNA_A03.bam	6e249afd185c161dc2542577e6bb4bb9
GS02333-DNA_A04.bam	eabbc54579e4b236df263e4afd61a30a
GS02333-DNA_A05.bam	895271ba4aacb0368edb7b88c0d05226
GS02333-DNA_A06.bam	c9032552adb98823e8a5a9731c1bc12b
GS02333-DNA_A07.bam	37c1da5840ad1091215d7f1c17cd1bc1
GS02333-DNA_A08.bam	e314b109b1fe0aca1c255e6cd5d71e2f
GS02333-DNA_A09.bam	e45a3efa2c883bd405dbcbadae8a1270
GS02333-DNA_A10.bam	04c659e7f46f4ad943faaae5f43106d4
GS02333-DNA_A11.bam	ff9a5271769715d57b14b524843c42ad
GS02333-DNA_B01.bam	8970252c0000e029490b1c0ee02be419
GS02333-DNA_B02.bam	45708777a4c2e914b86c97b55254c378
GS02333-DNA_B03.bam	37939e6d9e8c64a891d49c9048620195
GS02333-DNA_B04.bam	8c6d6e9f419f8e45d68136028f19bd9e
GS02333-DNA_B05.bam	2a1d442e430fac62c0a1505639b7f426
GS02333-DNA_B06.bam	e95dc1301695e8f0cbd90a7b2abd09c4
GS02333-DNA_B07.bam	2158d647e08461b8d21ad804303e9d28
GS02333-DNA_B08.bam	4b431216d80516c0727764534d56fa45
GS02333-DNA_B09.bam	be20d5318f4fadf3795ae4cf3995c3a9
GS02333-DNA_B10.bam	ad307efd890cfa917537e24c06e41795
GS02333-DNA_B11.bam	80dc990229958efab262832bfa228be0
GS02333-DNA_C01.bam	035a1410a0dacd33127932f6782eaba3
GS02333-DNA_C02.bam	ac325ad987e4ccad5987b42df9d8bbc8
GS02333-DNA_C03.bam	709a6d78f4f8a4ff6273008f909cf2b2
GS02333-DNA_C04.bam	fe8cbaef2fb0f2bbb92504f2e3206bae
GS02333-DNA_C05.bam	fa62199ef733f62e1eb21ff01d887247
GS02333-DNA_C06.bam	3f31a02b6bbfbc2faf8aee2a5a0af47f
GS02333-DNA_C07.bam	05448efd76d9aaa2c13f203bd8253f23
GS02333-DNA_C08.bam	31e8d94243d64bb886c4fd0c1ccea174
GS02333-DNA_C09.bam	dc0a9edc4f50009bb0cdb00c2b0d63bf
GS02333-DNA_C11.bam	55bd260db7ad370d55eb97c4437fa594
GS02333-DNA_D01.bam	709d8adf87291c360a7b0974c8d17614
GS02333-DNA_D02.bam	5fa9e58cbb9d147730807fd27222e0ad
GS02333-DNA_D03.bam	cd9064ff20b985e62aeeff9f617b1de6
GS02333-DNA_D04.bam	3e37f01a712a7bba6accc01e2f6f3111
GS02333-DNA_D05.bam	daa61c9200131ec93cc5bd20df025a5b
GS02333-DNA_D06.bam	451d2db921129da9e7b95ca686477d8e
GS02333-DNA_D07.bam	816b89fef623e0adeb8bfbb8e13b1a29
GS02333-DNA_D08.bam	8a2970562dfe79c0c2d3093ccfd81591
GS02333-DNA_D09.bam	322d5bfb096972809b316371276ff47e
GS02333-DNA_D10.bam	60c76202cf84d3b806233785894e56f3
GS02333-DNA_E01.bam	3d21383a9296b26a003eab8bf4b59684
GS02333-DNA_E02.bam	e71363a3f6bf269ebca2c487d4289138
GS02333-DNA_E03.bam	494a069791ab9d0e5092f0923b021587
GS02333-DNA_E04.bam	8daf2e2a367b833919a4a9351df2892e
GS02333-DNA_E05.bam	38f669f998d92eb096604742c707155a
GS02333-DNA_E06.bam	73a7bef5ba02a0b037c4142e576d826e
GS02333-DNA_E07.bam	fa3aa8f04fcf8bd9bdf92d5b54ef93bb
GS02333-DNA_E08.bam	615b6f2d2e4cb3c8bfa5d0cfe8ed9c52
GS02333-DNA_E09.bam	cc972afbfa5260cb0e659965c98f1761
GS02333-DNA_E10.bam	cf96e9678a7e8ea644d87f602448f6dc
GS02333-DNA_E11.bam	8a9a8827f919799069abb5d69e6abf73
GS02333-DNA_F01.bam	8b1ac9ca4ca5b5e038a2099a18e802e5
GS02333-DNA_F02.bam	a773d8a35f7e44206486b748983af197
GS02333-DNA_F03.bam	526ca8e2de48fa31657d37da90d216cb
GS02333-DNA_F04.bam	04d8c2baf7315adb660fcaea4468df1b
GS02333-DNA_F05.bam	7ddd2b6499a0dbb46d351dbc0fe4e750
GS02333-DNA_F06.bam	b5ee2ff4444858c288f4662536378c68
GS02333-DNA_F07.bam	fc6ef4fd59bdef6928397d3b3d0443ad
GS02333-DNA_F08.bam	bb2e0dc3f49f7841373811535322c603
GS02333-DNA_F10.bam	58cbca3a6a13ba6bba714e94bf364700
GS02333-DNA_G01.bam	f67c256d805966682d7ea82a9114c440
GS02333-DNA_G02.bam	a9bc27ae21b0504f642f4acc5fd9f8cd
GS02333-DNA_G03.bam	d2316a211a74a94d1ba648947fde77ff
GS02333-DNA_G04.bam	e320632f937b4ec36b59e9a879a80f87
GS02333-DNA_G05.bam	338bcbf8202e00ef12b527acf0e22069
GS02333-DNA_G06.bam	81a1c05d9eaaebe1568962ab24a016fa
GS02333-DNA_G07.bam	d2adf97289cb9d8a00f08e3bd7f9d392
GS02333-DNA_G08.bam	ba19892f8cca2eb332a6ae6ef94e010c
GS02333-DNA_G09.bam	44f8eae1c11095b0090fea50eabb4ee9
GS02333-DNA_G10.bam	3986ee9aaf9ffb305d7b1f88ff6e7ac9
GS02333-DNA_H01.bam	a66ff0633cb596e77f55c21eea092e97
GS02333-DNA_H02.bam	40d0cb0e4911e8435ef286c195ecff51
GS02333-DNA_H03.bam	ef2b699ccf5b71230966ea3cb1208953
GS02333-DNA_H04.bam	958594ea824d0684211ede3409124ed0
GS02333-DNA_H05.bam	d7fcbec21d4148a5ffbe1b58831a9cd3
GS02333-DNA_H06.bam	353983b4619c286743c15acc3dc2ead7
GS02333-DNA_H07.bam	e79cf424736a7bfc512dae4775b79ce0
GS02333-DNA_H08.bam	db0e2d3c3a2f5f172899490005d9a56f
GS02333-DNA_H09.bam	a70b1b90a8b84aa92f000e0c1b8857fb
GS02333-DNA_H10.bam	4f3d00228140b5bcd2b742b73a54ddea
GS02334-DNA_A03.bam	aae423e8adeea34a5de3010448cefc09
GS02334-DNA_A07.bam	62ca15a49b9caff01888b2fcfdb52e5f
GS02334-DNA_A08.bam	7ec7abb08b38dd7873dc91e55f26f65d
GS02334-DNA_A09.bam	bde87e8e6d4d4743d0759b509fbbb9fb
GS02334-DNA_A10.bam	8833afd75b22bcee4a6f7036c208a0dc
GS02334-DNA_B01.bam	74502aeb671e81877483d616cc34bc1e
GS02334-DNA_B05.bam	39fa6371ed3f7b3d4dcedd43d8f23881
GS02334-DNA_B07.bam	73f24b31b6476f19a7d7f90a33b97f1f
GS02334-DNA_B08.bam	05a9896287550c7cbdb2f75050b62bc3
GS02334-DNA_B09.bam	2a0985359134a2d009d3709409f1bf8d
GS02334-DNA_B10.bam	00be0c0c998f8816df09b311656ac56e
GS02334-DNA_C01.bam	24fc5a8da8e8d5781cb419d778b1c394
GS02334-DNA_C02.bam	3af98b4e772a8fef731e22252dda1372
GS02334-DNA_C03.bam	f1f524d1a8b179d9e12032cb41994e12
GS02334-DNA_C04.bam	78026d38b9d1755fa744c7687c2e8d6a
GS02334-DNA_C05.bam	83ab9434b87c7cf5f8ef0002ffb7be9a
GS02334-DNA_C07.bam	4141dbcca43bab889cc5bd41932a4c7b
GS02334-DNA_C08.bam	cb5a16e2d29b09f7c0882d5dd9d0ce0c
GS02334-DNA_C09.bam	5e983e7da0afaa5913514f172d31179d
GS02334-DNA_C10.bam	a2abafa6df880095affe0906cc9f6297
GS02334-DNA_D03.bam	1f5be3bcba4a00a228c6a73eeaca9c8e
GS02334-DNA_D04.bam	e3a2366392895a9ebe8f89522bb8b09e
GS02334-DNA_D05.bam	869902b6078e897806b6de8165940e83
GS02334-DNA_D06.bam	4cee6e45530f79ab82c887b9a6c509e0
GS02334-DNA_D07.bam	74b3da49ebaf755ad8d833baa1db859f
GS02334-DNA_D08.bam	5892187bebaa6d20acdd7456b0ae88b7
GS02334-DNA_D09.bam	d03692aef7672fe33ac01266e841601d
GS02334-DNA_E03.bam	529566dd6f2305ee278bae5e01fb47e8
GS02334-DNA_E04.bam	a08d98b7560fbf84e337ebbf7f913d10
GS02334-DNA_E05.bam	38fcc61e5b780f3bc8eed77b610021a0
GS02334-DNA_E06.bam	0932d6a57b978eb7596e855f471c6c4f
GS02334-DNA_E07.bam	91f859e9d62c8ee0706f973d4911f476
GS02334-DNA_E08.bam	71b6053bd3c075112d0ef0c4c5c7c539
GS02334-DNA_F03.bam	0810ffcbdaa7d7c1dc7b23f490951846
GS02334-DNA_F04.bam	b2d8d0c043354c3d3264cc3c45151d9b
GS02334-DNA_F07.bam	2f56cc69f836440c41c819abf2d53187
GS02334-DNA_F08.bam	e525183b3d40db35e7077ed49a5a4529
GS02334-DNA_F10.bam	66e1038885c31c29c03d99d3a6158ad3
GS02334-DNA_G03.bam	e0136ca9083fcbda18ab7b55d8d9e716
GS02334-DNA_G04.bam	672a4db89716e7bae01d2a54a64e3426
GS02334-DNA_G05.bam	0dab49b62bc847bb06acf1fc5e7196a7
GS02334-DNA_G07.bam	2410e8e547fc011d75b02a41acab1eb7
GS02334-DNA_G08.bam	40399f963842b41a680d108d856ea22d
GS02334-DNA_G10.bam	41e4a6157d6ad97d5d58597dd9194dd7
GS02334-DNA_H05.bam	211f92d3d9dbca8d59aca60c09e7d4fc
GS02334-DNA_H06.bam	59b45cc9b522cbe83a647c70b9e0751a
GS02334-DNA_H07.bam	6ef5ef63683b0b5000831855f132aee7
GS02334-DNA_H08.bam	aa71f8ecc9ebd38b5c0b6e0c3810a917
GS02334-DNA_H09.bam	f222267d3d64ec222a42a6b4ba043194
GS02335-DNA_B01.bam	d1e44f2d9c677c1155c018030a78e834
GS01681-DNA_D02.bam	bf173f0f1e51565480bd5446932df18c
GS01681-DNA_B05.bam	1f7ae79ca8c50c263409438c87272f9f
GS01679-DNA_F01.bam	1d70d1757b98b538d38f0813f708d48c
GS01679-DNA_A01.bam	299788ea2b7db19a92d2c55bd04c3941
GS01678-DNA_G01.bam	579718cf5a427ae9ef16cee085280ced
GS01676-DNA_H02.bam	6fe22fdf27f603d100a500f116bea041
GS01674-DNA_A10.bam	febd81c8d3468ab6249a73bfb5a39baa
GS01674-DNA_B01.bam	610bb839f6f8b38d590dc55cdc637d37
GS01674-DNA_B02.bam	fe4fd9c95140a12988aa95b4b1fe6a01
GS01674-DNA_B07.bam	3401b56d3ba560132caef38a647e0b29
GS01674-DNA_B08.bam	a8453f21d55ba22c5488517aabbd538f
GS01674-DNA_D03.bam	20ff687c6021c9903545d53431e5c6c9
GS01674-DNA_E01.bam	37a8035600a9b9e8cf4d30d803a30919
GS01674-DNA_E02.bam	6b88d1c7213cd52b9097de0ebdc379a9
GS01674-DNA_F09.bam	c28695a0d27853f9d6c6af55f901ddb5
GS01674-DNA_G02.bam	3c316c7acf1ce91f3ae70723f2ce7615
GS01674-DNA_G06.bam	0e59cb5a3edcebcf326cd11c74328654
GS01674-DNA_G11.bam	6c8d72c147c4ee2602946e05c71e0c42
GS01674-DNA_H06.bam	cb2ac4e0e553fda018104de00af6c21a
GS01676-DNA_C02.bam	2d7c703fbaaf4933d40753b20e7b3b9d
GS01676-DNA_C03.bam	a7255bf1d4a847176fcba125dcc0ba67
GS01676-DNA_D02.bam	ba11033f0814e814d3fe76273b738ca9
GS01676-DNA_E01.bam	d0fe4e8dceff7e1d036c20e5bd8165af
GS01676-DNA_F01.bam	1049f9dc8311b1ef711781136df82a40
GS01674-DNA_A04.bam	80682b48231d991c07abbbd70736eafa
GS01673-DNA_G05.bam	0152d94a36b222d7373b539963e3411a
GS00824-DNA_C11.bam	bdcaab520918d78a580e6d5122ac2004
GS00824-DNA_C10.bam	ba7e026ee3054bdcace97d0caec6f2e0
GS00824-DNA_C07.bam	8207bdcad539b743ef18c6ce3162927a
GS01673-DNA_F03.bam	993907b3de4b7b0d4b22a412c1460e4d
GS00824-DNA_C02.bam	0b3d370be690d6cf23a7491e41338bba
GS00824-DNA_C01.bam	695c01e3314d528687a2c8cef8368ba6
GS01673-DNA_D09.bam	b047e6b7cedcea1718529e1fc71e390f
GS01673-DNA_D07.bam	547212d36b42cc1864f77e46c5189d03
GS01673-DNA_C09.bam	6206be245966aae82d3ee6006245d8d3
GS01673-DNA_C02.bam	ffb520fe7a594ba6447f4bff0db096b0
GS01673-DNA_B10.bam	ea8fff186dcfd4adf1fb42a1111931e0
GS00824-DNA_B02.bam	062db04e23bad9f16aef647179bf1df8
GS00429-DNA_E03.bam	8be803ef8df86fa5f8713819fd37a7ad
GS00822-DNA_A07.bam	4dfa78fdcc4928282d77d5db9aa0baed
GS00824-DNA_A07.bam	cf4bea2dc76b833a2c609944adc001ea
GS00822-DNA_C07.bam	e3ed909461eba51dcd7b1eda0bdf4d93
GS00822-DNA_C09.bam	244337a00580dcac19a711da227761ae
GS00822-DNA_C11.bam	5605660115adad703057e4272d045325
GS00396-DNA_F02.bam	03d6d8719ffbc71dcf783f29aa9413b7
GS00824-DNA_D06.bam	f181c0e27556b68e27f84d2f44d65807
GS00823-DNA_B10.bam	5a2ec69049f0966ddf4e5ee81db17d4f
GS00823-DNA_A02.bam	a02fe48c92442b99d0cfd52e793e9e34
GS00823-DNA_A03.bam	ccae5d74fd8f24ced1f6a9cd47a31195
GS00823-DNA_B03.bam	26448b5a355e973f454d74393b8823ab
GS00822-DNA_F11.bam	e85c68fcbbd3382a1e1a54531509e03c
GS00824-DNA_E10.bam	d9575176f01be6f07fb72e174e72d181
GS00823-DNA_H09.bam	f41eabe5a3764cbf700aa0aa4108081d
GS00824-DNA_F04.bam	3995d118a6dafd5c693a5b55f3fbad05
GS00824-DNA_G05.bam	e7028aae7d1ea9f4c20efca394ea349f
GS00824-DNA_G06.bam	1c50d78657cfb64fd26a02c988bb3ca8
GS00823-DNA_H01.bam	3aa93fdbdaa2f9d78da6e452577479d7
GS00823-DNA_E04.bam	c5941de7d5ea45fde222b289e1950bd9
GS00823-DNA_E08.bam	1c7be9bd00742af242978f8a0fd3f6df
GS00823-DNA_E11.bam	92053a97cf11d959a9799096bc3fbcc6
GS00823-DNA_F03.bam	b772f1fa6d7b629440f157dfc1e81f0d
GS00823-DNA_G10.bam	63558688292b71639f82c038cbf38872
GS00823-DNA_B02.bam	07af28e2b44b51dc2636cf6f90c2e8e3
GS00823-DNA_C08.bam	eed62ae60425bfcde59ac714fe0008e6
GS00823-DNA_C09.bam	7d54ba10590fd6bebd983bd8b5e41fa4
GS00823-DNA_D05.bam	f8f3322efe5de30e638be2edbe1c7b34
GS00823-DNA_G06.bam	42e3b653750b4b713c4f59d5fa8a773d
GS00824-DNA_H08.bam	5d20c8ab23a40a66ddbec10bc18bad89
GS00823-DNA_A08.bam	56f43d1bccda08f0993faf7082f26099
GS00824-DNA_H09.bam	ed50a909deb78d9cb77cb4603ef65420
GS00822-DNA_H09.bam	d44dbc1f016f2d14edef148189f98cee
GS00822-DNA_H01.bam	dd2fb52395cebb8d3e4d149e245e6278
GS00822-DNA_H04.bam	f5807594483673ce831f4ea0cc398fd7
GS00822-DNA_F07.bam	59caec16d0454edb0e17a7a68a1633af
GS00822-DNA_G01.bam	2a2020a3235e3f6a87250c6405fa6cd3
GS00823-DNA_G05.bam	6d89713eb8b1427d5d8f9c3d94531564
GS00822-DNA_D09.bam	4a72a952833d42d13332b114e1aeff55
GS00822-DNA_D10.bam	0b2c1bd0828a08ab0abb7e0bc97b7bd7
GS00822-DNA_D04.bam	a75f8cb00f0e73ab61791aaebe365525
GS00823-DNA_G01.bam	0861598bf83745432343abd71f7edad1
GS00831-DNA_D01.bam	da9c0636fea62d260fe92cb83406886a
GS01673-DNA_A03.bam	60f3b068aa65db2581f39eaec9e901ff
GS00826-DNA_B06.bam	1e5893ba698d01a4b38442e4552fbd1c
GS00830-DNA_G03.bam	d5f526e4543c23294ac2e9fec538b5e3
GS00830-DNA_G05.bam	0b0182135715fbb1f5935ae1142a7f8b
GS00830-DNA_G06.bam	c826f5caf591e76479b0b883b9832d51
GS00830-DNA_H04.bam	0698e011a8043e4589228ed7a3433c36
GS00830-DNA_H06.bam	e457f7b81d922d111556a0ea7479be42
GS00830-DNA_H07.bam	da8f8080920207fe43ad4de41e703d8b
GS00826-DNA_B11.bam	348c9321d4a7880883c59c2ead617287
GS00823-DNA_F08.bam	17b8182b4654fbad8336f583225a7137
GS00826-DNA_C03.bam	6f461efc05d06f13c7190cdce00195df
GS00830-DNA_F08.bam	5f522159a6588ed45f55276cc79f43f4
GS00826-DNA_C09.bam	07fd14081c13dffc60951d60d40c33b7
GS00830-DNA_E03.bam	62181a64f9a77f5827ec5eb940968859
GS00826-DNA_D01.bam	cc82c58411edfd23cff309af5890118f
GS00830-DNA_D08.bam	c4a4d3d3c0d1842d1691d40289911fe9
GS00830-DNA_D10.bam	82e63c455428f11d3ea11290b2edaf4e
GS00823-DNA_F06.bam	9adf6681e72cfc24d00925f886573b97
GS00826-DNA_D03.bam	d0975749e8157ff8afd3a342359581dc
GS00830-DNA_D07.bam	c650e6d396183cb6984839fb9bd6c606
GS00830-DNA_B09.bam	015568da8b5eb3cef9d6c97529256c01
GS00826-DNA_D09.bam	e4f290c51162a99e4d729078d7907f4c
GS00822-DNA_C10.bam	f1933a962b8998363ead2eaec9a95683
GS00822-DNA_C04.bam	9dc169841e775f1ce626b7cce9152f4e
GS00822-DNA_C02.bam	ca1520cb80b701b0b458b276f9f8c5d7
GS00830-DNA_A09.bam	9a8f1b251b3d95f28434838200253fe9
GS00829-DNA_H08.bam	9b4fb423ccf841f2205c188790418cab
GS00822-DNA_A10.bam	a81944c512597b2e9ef8712927803b74
GS00829-DNA_H01.bam	1fb0abdfe78ff2552d9add8e9979525a
GS00822-DNA_A04.bam	2cedc8056f47accb017307c506c5f487
GS00826-DNA_E10.bam	caefa5dc06547a32da6cf1e5d149f1b0
GS00829-DNA_F04.bam	c6a7c90b7e5f740d27ead86fa32809e8
GS00829-DNA_F09.bam	c6f4b418504bb878a295b9f4f8f93021
GS00829-DNA_G01.bam	acba2b2a0e44039160427461562dcd5b
GS00829-DNA_G04.bam	195e8515b7655936819b11eca115a4d0
GS00694-DNA_F01.bam	dd596cd11ad18eb187eea954f23bfbfb
GS00829-DNA_E07.bam	21b584e48f163b5de5547d05949cd9b6
GS00829-DNA_E02.bam	ad0a70296687d65e949e6c78e20cf752
GS00829-DNA_C06.bam	d832827e3b6000042d60ab67c9adec17
GS00826-DNA_G03.bam	5fcabbe61075f3b3bd7a9d86f27e3b8d
GS00463-DNA_D01.bam	9a81cfe35abb8691db46ac6140242e0b
GS00829-DNA_B06.bam	4d695b80e8f5b516279a281d0deffef1
GS00829-DNA_B07.bam	cd96416e8d4fb5132f094e05b61654cb
GS00826-DNA_H01.bam	c4a2372f0c612dcb84eba58de8c6452f
GS00429-DNA_H03.bam	481c95870d441ed62d26d4de8bd966e8
GS00829-DNA_A11.bam	87d0ec33075bd6f854c101866c8c0119
GS00829-DNA_B01.bam	0ea56ceb937ddc09bd1c2d59595dc498
GS00828-DNA_H06.bam	1322bbfe05239d0f517a9a37ef61e536
GS00826-DNA_H09.bam	2cccbdb3d0385fc41960deb1abcbe872
GS00826-DNA_H10.bam	5f7a78864d7e602563e3c6cc1b982f99
GS00429-DNA_G03.bam	c6088cee243fdc41336c29e4f45b661b
GS00827-DNA_A06.bam	00a0545fc328f8f11218375f8c69326c
GS00828-DNA_H01.bam	595915f8d273aee4a9697a0923cd7f29
GS00828-DNA_G09.bam	4742f4f44ab8ef4252b833ef100451da
GS00429-DNA_F02.bam	f31f0e2f0565b947c025552a5701c6b4
GS00828-DNA_G05.bam	b6944153b0c2164d074f77f00fdc5cc0
GS00429-DNA_C04.bam	51ddbdbdbd2e1c9002e0d9658f57a0b0
GS00827-DNA_D06.bam	bc23e34c8e18716144fa2a01ab91266c
GS00828-DNA_F02.bam	992a78cb6f9a1390aa305161e69bc714
GS00828-DNA_F07.bam	ca0d0f0e62830023e5527809e3575f73
GS00828-DNA_D09.bam	fc7a495286d81b373702a87e7d919545
GS00828-DNA_C03.bam	f03df66710161899952124eaf2b43a80
GS00332-DNA_G01.bam	b550300ba6cfc793e0a3bc5f274c51f2
GS00332-DNA_E02.bam	70cbdbe68579a89002ac0d61342aba2f
GS00332-DNA_C02.bam	e44f608531942af65457cfc4274c485a
GS00828-DNA_A05.bam	acaab1c0e5cd3dd22c24ab5e1eeca60f
GS00828-DNA_A06.bam	4f1c0804a616903fa2a2e497cea95f15
GS00332-DNA_B03.bam	c06699b5cbf32bd4f771224a8a47bd18
GS00828-DNA_A07.bam	7dce1d00c5538f710525b8eece16d1a6
GS01682-DNA_F01.bam	581137507ecb576cc7f88b42c428e08c
GS01682-DNA_C01.bam	df271ecee1a40b67a19bab39002a03b9
GS00286-DNA_D01.bam	7985dff7b2854a14d42a61fd03d97294
GS01681-DNA_E07.bam	f76811f6a7be4b859538bc4f4f3d28b0
GS01681-DNA_F05.bam	fdcb6bb6806e6e26015a3c992d926321
GS01681-DNA_B06.bam	7246955ec3ccc11a3264028475b36f5d
GS01679-DNA_D01.bam	598d3bdbdacecc502af644ac13339810
GS01678-DNA_H01.bam	b6bebf0663f412fde075f2e9bd83071c
GS01676-DNA_G02.bam	33b4f41ec72b59c86aeb572ff8fe2af4
GS01676-DNA_G01.bam	c9fe639c990b30bc36a45179efd482dd
GS01674-DNA_B04.bam	aa7db0b588bd53f4054fe90f639449b5
GS01674-DNA_C01.bam	0a9265797ba1a8246c3e89a8bc3b77c5
GS01674-DNA_C02.bam	811427bb0c33379b88c2335caa82b7b4
GS01674-DNA_C04.bam	98a4d9f28794b787d3b8a42c0dceafa1
GS01674-DNA_C08.bam	5d32b43035fad5f0ad2ffd190ac39edc
GS01674-DNA_C09.bam	301a5aab885f3151e011eb501b93acc6
GS01674-DNA_D05.bam	29e02560c9a2b6245fa6382c4ef42efb
GS01674-DNA_D08.bam	a2f06fabc1c4e304e36e9a43211e336e
GS01674-DNA_D10.bam	4f3fefe1b82e593397a5ba48c6e94dd0
GS01674-DNA_D11.bam	fc4ea9b086b4f334a44b64db0892a7d3
GS01674-DNA_E08.bam	0669b2c614d50789899f6874305bc52d
GS01674-DNA_E11.bam	fa3cbba129766e1eab5f9709599b21f1
GS01674-DNA_F01.bam	ccf7ca219917f05851c5befbe27e1c5b
GS01674-DNA_G07.bam	4eeb22007e488c8eeba15281477cba2f
GS01674-DNA_G09.bam	9b5284141a25561943f8c2a88405b554
GS01674-DNA_H08.bam	9e5080e490d9a58fb2a498e9e6d376de
GS01674-DNA_H09.bam	ded341026fc003b8a308cabcee5b3ef1
GS01674-DNA_H10.bam	9899e7e8a4a314bc4e89c18fd05270fa
GS01676-DNA_A03.bam	0addc0ec430a611d9af402162c4ee14e
GS01674-DNA_A06.bam	450ec4d4a7b43a750216e2fb0fd577e7
GS01673-DNA_G10.bam	a81d5c9c61c63a445791ee661a70ca44
GS01673-DNA_F09.bam	a3234cceda7a64a60bf117368d9eddd5
GS01673-DNA_E09.bam	97751e8fc8d550b159e941ce586c7859
GS01673-DNA_E04.bam	603b5084a21086eb95c78d5c494ecc81
GS01673-DNA_D08.bam	513020f768899f54dc687375be75ab71
GS01673-DNA_D02.bam	c696a402c497e4110294301cbb0bc238
GS00824-DNA_B07.bam	f5758bb7abf21679e3b9c8dab2b0824c
GS01673-DNA_F11.bam	5a7706803f2fe256f3894d0a0aa1f4eb
GS00824-DNA_B05.bam	6c504ee3aa0a055a68f7d0536df16aff
GS01673-DNA_C01.bam	5d55af8331c0be94f6bced92de17ccb6
GS00332-DNA_B01.bam	dca2b7e8a7aeb806524ec923910c05bf
GS00332-DNA_D02.bam	ebacff81aeff4ee6fc4b3868a99a5c37
GS00429-DNA_A02.bam	853c423b083dffce80355f8c01b01cf1
GS00429-DNA_C03.bam	aaee56fc8c9d8f882a84af08c41bd8ad
GS00824-DNA_A09.bam	b1547f8d669284baa6f61326d04fc4a1
GS00822-DNA_A01.bam	f362af075456d7ef659fcc46fdda2df9
GS00822-DNA_B03.bam	2b47e0edf08b4a174e0c102d8cd6ba26
GS00396-DNA_G02.bam	62119ed0936aa8f808ee4b34305c1776
GS00824-DNA_D09.bam	403f511296a94a8fdb65cb3d542bc1dd
GS00824-DNA_A03.bam	f389614ed94d60b344b0c592833381f7
GS00824-DNA_E03.bam	a95c0498b473e0ca9df865cc552e5e98
GS00823-DNA_H11.bam	0cdf8b4237c96a2c961f1b3cbefd2fd0
GS00824-DNA_E07.bam	3fdd98c805fbbf14dea83b5e3c098343
GS00823-DNA_C03.bam	7d05652bfbda4f6028d492b18d997c3a
GS00823-DNA_C10.bam	ba19b0a2279da0abce917873ff37d560
GS00823-DNA_A05.bam	a4acbafccdbe2c818a4ccb5bfc074891
GS00823-DNA_A10.bam	7da9018290b7d264cb849b2410c4769c
GS00822-DNA_E11.bam	bb2b7eb81254b2d3cc8c0f514fc0d300
GS00824-DNA_F03.bam	07b92a048ac03b55f420c792eb811d7a
GS00824-DNA_F09.bam	723dafc52cb1586ad777119310ea9909
GS00823-DNA_H05.bam	2677e339d4b7ab645c84684d632efd63
GS00823-DNA_H04.bam	db9fee90d502385b75c31e9682da2937
GS00823-DNA_H03.bam	a8bd8ccc6ad8e30636a17b56d444c46e
GS00823-DNA_H02.bam	9bb61a95ed4dbd16a70526c356447755
GS00824-DNA_G09.bam	0f45237cecb225b2dbc62266cc75a3ca
GS00823-DNA_G08.bam	58774db4253e9fa2ecb8bb3155cca129
GS00824-DNA_H04.bam	63eb201fd1900a308b1f2d00a363560b
GS00822-DNA_H10.bam	f1e95748b6286ed70de02955aa8f46e9
GS00823-DNA_C05.bam	c7763dc5d2a8cf015cc649b8706d5c4e
GS00823-DNA_D01.bam	eaa044acab825817a5f3b99028e62881
GS00822-DNA_G04.bam	29b11019bdd5516faa8e9752c8a414d2
GS00822-DNA_G06.bam	cd25216791a96208f73d9c85cd11b23d
GS00822-DNA_G08.bam	bf6fc6f4098c26895c8b6f5750c35046
GS00822-DNA_D01.bam	ab881d2c9c3f15cab0c9130822f0dcfd
GS00822-DNA_F01.bam	7aa8419455a29d7c06dc5d6ec0a936d6
GS00822-DNA_F06.bam	cb3846f945f35ab6ad092e3353f14f31
GS00286-DNA_A01.bam	3ccdcaa0177ac01574f55fec8e45f88f
GS00828-DNA_E07.bam	ded61cc1f09fff2096eb9f827550c47c
GS00828-DNA_E03.bam	db6c319d1c4ce5e6e08076c414d476cd
GS00828-DNA_D02.bam	beba00ec27c8735ba3e9d35316f93694
GS00826-DNA_B10.bam	a7d2566114c79bdfd56f12c105109dfb
GS00830-DNA_H01.bam	3253eac075197a0eb75d43ac0aa862de
GS00823-DNA_F09.bam	121396783dd002f811b72de71c7529c3
GS00830-DNA_F04.bam	f5f556ea79c5543e13660f363a561634
GS00830-DNA_F09.bam	f3bdd8a57e2770ba3cad58748e71ca51
GS00830-DNA_G02.bam	ca5aa5a52cf4ee652508aa4120f1652a
GS00826-DNA_C04.bam	702d3a2068323366fdff10f9da83aa02
GS00830-DNA_E08.bam	a84f5cbadc95b726ed61db579b3adfe4
GS00830-DNA_D04.bam	86b9bef68368bf0f3e01e00e38f6b04f
GS00830-DNA_D03.bam	900e57b40f325a2e4b8dfb71286cb53d
GS00826-DNA_D08.bam	026340916296294228a176dd9f0a75f1
GS00830-DNA_C06.bam	0aeff3f3b53fabca6ef3d696b59ad667
GS00698-DNA_A01.bam	8f03442cf3ec27320da7bfe68cd4a245
GS00829-DNA_H05.bam	4e085551927a7b7d1b92dbc540e42757
GS00826-DNA_F02.bam	bc0138dea9d8477b5f044e8b51431782
GS00826-DNA_F03.bam	164dadc2099382aa09d81db398be6bbf
GS00826-DNA_F04.bam	ba025f2e4572efecbf3bca5d3a50a167
GS00829-DNA_G09.bam	f40cf69ff81df0b158292c502fe80597
GS00829-DNA_G02.bam	e18c66c4ff339fd4df898684bb900731
GS00826-DNA_F08.bam	ca67910c8c6048f1077dec056a673b23
GS00826-DNA_F10.bam	0e59af179b107cd57dc0d6b1e7b3628c
GS00694-DNA_B01.bam	e3f1c715d8841d01f789ea866e8fac44
GS00829-DNA_D07.bam	f29e9e5bbbb5eca2212f383d44012b86
GS00829-DNA_D08.bam	82424064028fc530e6efcda0eebc1424
GS00826-DNA_G04.bam	9e177b7d447c2817cfdcf5c555bafa84
GS00829-DNA_D05.bam	a78914de19c49a6cb2bd02e431c9ad0c
GS00829-DNA_C03.bam	cd4ba80e7fa7fa90870bd47298362039
GS00826-DNA_G10.bam	505df3bb2651ee9740bfb1184303bb29
GS00829-DNA_B04.bam	24e0dc7f3061c65c84fe7db69d35c153
GS00829-DNA_A06.bam	1f8f9c504d00bea3788b7bf173342d04
GS00826-DNA_H02.bam	3831c3842221a511ee0c8b547b680383
GS00829-DNA_A04.bam	617623a063f9ff912d95ac527c01bf17
GS00429-DNA_H02.bam	70187fd0220b31bf7c1c0e5f0fd664ff
GS00828-DNA_H07.bam	9dfe90ed59630a7fa1afc5184218f801
GS00828-DNA_H02.bam	b9569a89e29f39d1ce266910edae9b2d
GS00828-DNA_G02.bam	a03e40b28caaa470f92c44e6bae8f3fe
GS00828-DNA_F08.bam	d98c4976408e4d6983b84ad6553a3ee0
GS00828-DNA_F06.bam	968696acf1eea195273d43059fc7ef15
GS00827-DNA_C02.bam	731b362d55544bf66385d0662802880d
GS00827-DNA_C06.bam	3e1a0fbec06ac917460ece8bbb6a3da3
GS00828-DNA_F04.bam	6e1b995cab2c5638227ef040a95d0fef
GS00827-DNA_C07.bam	956097af94c7f4c0c939272a80cc043b
GS01673-DNA_A06.bam	c5284c3cba09c97477ebc93fa40f1043
GS00396-DNA_D03.bam	0904191bd072092dffd3f5c13817d07f
GS00828-DNA_D06.bam	874ed209c63f10613d31f10611566708
GS00396-DNA_D02.bam	5fe7c21b50a7c3037c6190c96179a7c4
GS00828-DNA_D04.bam	9a6cf6b61be8aff2bbdb7aeb117a3a78
GS00827-DNA_H01.bam	5e0500839a120bf83f07d71d7971fc5a
GS00396-DNA_D01.bam	1f5847719f065b6b99ad9d9ebfc6177f
GS00828-DNA_B03.bam	ead85338a3a9278d9f6d82ca10dbc3c7
GS00828-DNA_B07.bam	38af297b3cc6147ff359c6e68e21df63
GS00828-DNA_C05.bam	60d179eb3695e2853317f8355a193857
GS00332-DNA_D03.bam	ac871715aeefb1246a3d37caa3e77f24
GS00828-DNA_A04.bam	fd1f4dd32b7197d5919cca587393d0d7
GS01682-DNA_C04.bam	913b2ad37fbe7cb2367439a507357647
GS00332-DNA_A03.bam	858a55970b301f6878b368765c7f1b19
GS01682-DNA_A01.bam	b9ef74a94d3c37a37d51e794c1713d0d
GS00828-DNA_A08.bam	dd0ec6c1fd2db2997f53215e009f99dc
GS01681-DNA_H03.bam	7fc37fb72cfbd8791020e7b292b1e39f
GS00332-DNA_A01.bam	cd97a97a4ff5ace2bdf9a5ff72bcb3ca
GS00286-DNA_E01.bam	a491dfe8955f26470953142a47b9e08f
GS00286-DNA_H01.bam	2c64121ab5b948ffaa53ca965bf7774f
GS01676-DNA_B02.bam	62aafe42cd362f71b16d7913fc6e20b0
GS01674-DNA_F10.bam	7c66c30a68afd800955be811dde215e1
GS01674-DNA_F06.bam	2d19a53058c3bf574e74b9aa4eec2179
GS01674-DNA_E10.bam	607257f96ba296af52b46b2fa3446506
GS01673-DNA_H09.bam	31c961f3b64982eb0af1681f781554a4
GS01673-DNA_F05.bam	1f6fbc3065a17ae7950cd1966b58879a
GS01673-DNA_F07.bam	64c284c8dadfbbf7fb4de4bf3d5db4ea
GS01674-DNA_D01.bam	e8e834dd554f6d02acb6923b2c7736c5
GS01673-DNA_B09.bam	1471365991f86af5aafc031b6d22ac6e
GS01674-DNA_C07.bam	ef0c62073ca309d113661ede6c596966
GS01674-DNA_C06.bam	0c407447348df952dbe5363fbbad7bb2
GS00396-DNA_B03.bam	2e1306a4459e17bc1842334bb4bcbbba
GS01674-DNA_B11.bam	1f46385f35f0461f02e543b0fc652d2a
GS01674-DNA_A05.bam	158ec1682d4fbbc52a71238b4460101b
GS01673-DNA_F08.bam	6c2dde7d64fe64ab7b194acc6922c90b
GS01673-DNA_E07.bam	937ba996a9fc6b0fc4e0acefb2604761
GS00824-DNA_D04.bam	380df03c7fd717fc2d9b93669d33f354
GS01673-DNA_C10.bam	54d8414fe902b3e095c7c6f5f0dedd47
GS01673-DNA_H08.bam	9cc1864ebcd65a7c623a30116083c147
GS00823-DNA_E10.bam	41a116e239f5eda3c1ec83164c750c73
GS01673-DNA_H03.bam	048c81b19e78fccd78754a8c1d36fa92
GS00823-DNA_D03.bam	415bc6f6a4940e9e6bcf4d967465d269
GS00823-DNA_D10.bam	ffa48ca9ea039cb975d67b4329093d05
GS01673-DNA_G08.bam	1f6690246108e24d01f3cc70fb573ecb
GS00823-DNA_A01.bam	493edc7892df692ba6a6e901113a33ab
GS00823-DNA_A06.bam	c10f1b6e720b85c345da371fd5e138f1
GS00823-DNA_A07.bam	a44bf542cd356369b6ff21a17fbc185b
GS00823-DNA_B04.bam	7d7f335bb32097bbf8b5a27b0f736fa7
GS00823-DNA_B06.bam	42ef113c49316d403915fe28de9f5b65
GS00823-DNA_B07.bam	75b4b1e0c2e85af7427e7cf2bbacda9c
GS00396-DNA_A03.bam	cd16d3f4c0c17ee8b6d78c6f4504be5d
GS00824-DNA_C08.bam	985458f659da7ac45602531b50fe57ea
GS01673-DNA_B08.bam	ad2502573893695139d3345f7fecc91d
GS00332-DNA_C03.bam	2f111b8e2b517ce6a5d64028214027ec
GS00429-DNA_B02.bam	ba95dd23adfe3c654ba400860feb5cc5
GS00429-DNA_C02.bam	9e3541d1488f1937c31346a46c118b45
GS00429-DNA_D03.bam	6459eddcd8f24ed2d7fe13cc0f5e962d
GS00429-DNA_G02.bam	d031a72f6cb7580db14d3ef814318bda
GS00822-DNA_A06.bam	e41dd87d0eae83c08fded11a4e6ed44c
GS00822-DNA_A09.bam	841af6b9e450e11947ff5637d67fb626
GS00822-DNA_A11.bam	ef71c63c492fba2207a177f70840e346
GS00822-DNA_C03.bam	1b792cd8df631b3bbf76e85835c51aff
GS00396-DNA_C03.bam	fb479b7a70e8ca67f7a8cedef889d962
GS00396-DNA_E02.bam	25b61f805322dbe0cf61b53deb185a3f
GS00824-DNA_B10.bam	7922ee5e734fe98a56b24c2d11968d97
GS01673-DNA_A10.bam	ea9852e60d3aaf74c9cdc52b1654968d
GS00824-DNA_B08.bam	97e7b241d813bdd366a9c57b2ac2e20f
GS00824-DNA_B03.bam	6672a27e64f63582ca5130360bf0e114
GS00823-DNA_F01.bam	2fbf937375ecb372d4f174775d6fc98e
GS00824-DNA_E06.bam	c1b990e719e4c09383e29f1f9b63dc51
GS00823-DNA_C02.bam	3e40f755400df7dc10d1ed496283fa94
GS00822-DNA_H02.bam	f5c3e00e2374212d085ef9206c915751
GS00823-DNA_A11.bam	6fc74a2789179e2db0668e2c8707d462
GS00823-DNA_B05.bam	94486537f07cd4dfb4629b43894d8977
GS00822-DNA_G09.bam	bb2ed7275f7dd7b863389ad323ff1bae
GS00822-DNA_F08.bam	7f227c988ec5be0f8bf4964b698b179e
GS00822-DNA_E03.bam	3aa07ad9e06be8816336ec681e1af528
GS00822-DNA_E06.bam	c4c53035cc8e2a57038fbfec6b51aaee
GS00822-DNA_E08.bam	db96ec391ca3d058edf4ec14ea0ec230
GS00822-DNA_F04.bam	7649dd09561a564e28b2b79fcaae00b9
GS00824-DNA_A10.bam	ab7385700b3c6b60798d4685f8eb96b0
GS00822-DNA_B07.bam	16ce7e503bc11bac25f935378901a44b
GS00828-DNA_F01.bam	b9cee713cf521028b2a85ae0fc7e9431
GS00828-DNA_D01.bam	72bee18509b5b5d64e568e961c30fe50
GS00828-DNA_C02.bam	159867108c3b1de842b2484a05c0e9bf
GS00824-DNA_G01.bam	cddc7e7a40a9250526541026325cd2b9
GS00828-DNA_C01.bam	06213c0036f09b455bf24465326255b7
GS00828-DNA_B08.bam	85b3ed5c1d0ae55b1f8575b37be64055
GS01673-DNA_A02.bam	ca4ebec00dd1ee98c30a24853c9a7680
GS00824-DNA_A04.bam	2dd6411631f1c62bb6b731b86e12c62b
GS00824-DNA_G08.bam	dd52e5659f448ce12eb81055d7ef28fb
GS00824-DNA_G11.bam	4f47ca5379adc0f8f86848265e5b469a
GS00830-DNA_H03.bam	c5234a9962593fb212e0d2800991bc57
GS00824-DNA_A01.bam	4fe940120d53c6f5fa4eb19a0b84ba1c
GS00824-DNA_H05.bam	dcc507dd93f216bfa1264c3dca574caf
GS00830-DNA_F10.bam	49a6999fa63da2d500a576c5dcb05c75
GS00826-DNA_A01.bam	5fd938535a44c5d491ac21a3ddaaf6a9
GS00823-DNA_H06.bam	be913812e897b16a575f12af4483cd35
GS00826-DNA_A02.bam	e6f7348a6838e02cf4a3b0f15cdf4e1b
GS00830-DNA_F02.bam	44ec535252326d6d54f75882d93ca856
GS00830-DNA_F06.bam	6823fa27bcbebd3008c72b8405bf03ac
GS00826-DNA_A04.bam	518983fb59c84562bb30cc1614813b9f
GS00830-DNA_E07.bam	202e551c70330d31d6a5684da6dd57bf
GS00826-DNA_A06.bam	35d8f5d695bfbdf38842e96026d0ce0c
GS00826-DNA_A07.bam	f7fd71629a378c1a443f45b462939b94
GS00830-DNA_E05.bam	d8194bc8f86b5a6dac416c56e05c4f60
GS00830-DNA_D01.bam	8d3fda26136d95806834e7fb9fbbc831
GS00830-DNA_D02.bam	9186fdf2559d34b8636daa4df4bbedae
GS00823-DNA_G09.bam	ba2b2c7e267b713ed42f209b95890d34
GS00830-DNA_C07.bam	52dc8b211d2e73529b82b5c43b8e03dd
GS00830-DNA_C08.bam	6f8d20f5086b9891d276b4004eb33b10
GS00830-DNA_C05.bam	adea04dc1ef2a70eb3f304efa32a0293
GS00830-DNA_C03.bam	5a3b6dbadde4e5af8da53f19314ee851
GS00830-DNA_B10.bam	c61d92fed8ca949c017ed7cdfb386ed1
GS00826-DNA_C05.bam	ac8ac25f91dcd9ba610c1efa0d8de094
GS00830-DNA_B07.bam	21f3eec2928b5f0c92551648afb2dc57
GS00830-DNA_B02.bam	0afaf0e19fa9321c62e91eee74681ed5
GS00830-DNA_B03.bam	4955080bce84e00775b145e772a310af
GS00830-DNA_A06.bam	04967137aa002b972b686cf03a02f099
GS00830-DNA_A08.bam	a2e54f41d02e23ce7e0423e5f2a75dbc
GS00830-DNA_A04.bam	2d71b34eec1e43c74ecebf6f0ab14f1c
GS00826-DNA_D02.bam	c52c6a8e94bdc0a5c3332e262a3c04ce
GS00826-DNA_D04.bam	20822ade9da02b130f4dcc12cca814cf
GS00829-DNA_H10.bam	8f957ed49c63f80f1decada1b262fd09
GS00829-DNA_H04.bam	d3e8ca9c8a08bfa2ccb62016f3066bdc
GS00829-DNA_H06.bam	c22e5da7346b2435e298dcf4d4b599f1
GS00826-DNA_D10.bam	ff9e60a257a548476fc85ecf54d9b40e
GS00826-DNA_D11.bam	22a44c31013808b451f747eec9b6280c
GS00826-DNA_E01.bam	597b6f82e9f68555f4c000f1913348b0
GS00826-DNA_E04.bam	166b44220d3bdf652addc9924953e688
GS00823-DNA_F10.bam	202d9e87ebaca5e4bebe60f7056bf301
GS00829-DNA_D03.bam	9c532d56493341e7876cfb032ebec91c
GS00826-DNA_E08.bam	d68bca125b2ae915894c4aadc067be14
GS00829-DNA_C05.bam	62a85b5814e1bb751e123843b4ce091e
GS00829-DNA_C01.bam	18d7577a3f6b11f618ddda3a04c85b52
GS00829-DNA_A01.bam	7006ee7e3451596a0928cd7dddc779ba
GS00829-DNA_A07.bam	20c28323680daf93c46933d92fad65ac
GS00828-DNA_H08.bam	7c6bd6e8f0cec8acf22ea79dd38040f6
GS00826-DNA_F09.bam	0265dfbcee08a66ffe942359aca9c4fe
GS00828-DNA_H03.bam	a244da2a6ef4c64871f7eb4e494d04d6
GS00828-DNA_H05.bam	5e8e3e152851b21660922f6c5a233222
GS00826-DNA_F11.bam	20e25775bbec2531436104b1f02641bb
GS00828-DNA_G06.bam	5d4bbfa0513a7cd0b7aab2c3b9bc2b64
GS00828-DNA_G07.bam	03e3980f60297e8f1910f84d45557da2
GS00828-DNA_G03.bam	952d44b09d8c0e98584d1c48ffc21f61
GS00826-DNA_G06.bam	d1b18b305bcfe7c392684cb12a45e73d
GS00694-DNA_A01.bam	50c4efc87665751da8893a06339dcba9
GS00826-DNA_G07.bam	08eadc17f015c642cfbc1ba89ba7bb01
GS00828-DNA_F09.bam	6985bb13c61fd8c532af1c3a8872e401
GS00826-DNA_G09.bam	d323c16814e4e547d2873e1ba10859f6
GS00828-DNA_E09.bam	4fe45c86c3953ebd546bd362a4c0426a
GS00429-DNA_F03.bam	58d22a101d5bc567218dfb9627605951
GS00429-DNA_D02.bam	b5e1ab57c2ee08f7c6fa22cc2904274a
GS00828-DNA_C06.bam	2a000b6af2d7bee32d69ba2b409c5ceb
GS00429-DNA_B04.bam	5ebbf4187e03d66d467a19e26d2cfc07
GS00828-DNA_B09.bam	bad5ebdf4a3353d9a38965d5808b93c7
GS00429-DNA_A03.bam	54a1b158d3c15bd45a0afe96406494a5
GS00828-DNA_B04.bam	b740aca50a452b8fc655767bb2ac6388
GS01682-DNA_H05.bam	17a46089f26cb2c16dd726d16965cde5
GS00827-DNA_A02.bam	4cb2ef1bb5eadcea0e55cf5f523b555b
GS00396-DNA_E01.bam	624ff9ddec79831613ec9f9949a9cb9c
GS00827-DNA_B06.bam	93eccabc940bcea152d654878b578079
GS01682-DNA_C05.bam	b3ebab06c83b891ca2d6651ceffcb2d1
GS01682-DNA_C03.bam	f0a95910a6f63ddd2c8efaba2d443b80
GS01681-DNA_F01.bam	a375b825e7055ad0f3c3fcad5cfcd662
GS01681-DNA_E04.bam	a9eb9e72a0dfdbf9064c330007a642db
GS00396-DNA_B01.bam	219ca88cd785ddac320604cf924fa482
GS01681-DNA_E01.bam	d1d88dbc902abb6d96516165a1c7113d
GS00827-DNA_G02.bam	8a32467ed120eb1ff2faeca77d197f52
GS01681-DNA_D05.bam	5a4f274d2f6e89f16e75ebad70c0b136
GS00396-DNA_A01.bam	b3ca6000dff498a2ef751fa841f13a52
GS01681-DNA_D01.bam	c86d2fb03217a4ac3e68372b64bb7c9a
GS00827-DNA_H05.bam	a6801620397a5f857996120e846e0db7
GS00332-DNA_H02.bam	6388796239eec440cb9b0dc28c329438
GS00827-DNA_H07.bam	63a0950c74aef86683368b7d90c3d5f2
GS00332-DNA_G02.bam	3495fb2c68b7cdfa140467a3487d624d
GS01677-DNA_A01.bam	da4878b80b3273430425c052580bf409
GS01677-DNA_C01.bam	6248a6e8003f22435aea37e3de5f6efa
GS00332-DNA_B02.bam	1581f6e84ed5ce734e81ec31d7a62111
GS01676-DNA_D03.bam	43bf5befbeb01dd0bbb5451a1b263dac
GS01676-DNA_B03.bam	ea9f38e15f88c067558ee614aba647e4
GS01676-DNA_A02.bam	d28ec59068bba141c1f02a24792e5690
GS01674-DNA_H07.bam	ecd055fdb5387f2b86438f69fe5fe037
GS01674-DNA_G08.bam	93e99f6581d4d4db98bd8e362f77ae01
GS01674-DNA_G05.bam	88364060f1600f362ffffb686e8cad12
GS01674-DNA_F11.bam	6579d3aa189cfe9e7879345beb732bc4
GS01674-DNA_F08.bam	8b5b16cd00c4a6f33cdf6d0495f0f78d
GS01674-DNA_F04.bam	add7b68ed37fc4b1dffb850f63cd4bb1
GS01674-DNA_F05.bam	0a648cd6edf050ff8829c9e0678a3d3c
GS01674-DNA_F02.bam	8a426fdd93b69d47cf7bd8a7ffc5a07f
GS01674-DNA_A01.bam	7eb9c5743edfe5ee3f7aa3f0555f35b7
GS01674-DNA_E07.bam	ec2879c3f1d3877c6e3a956939f82b1f
GS01673-DNA_E05.bam	769f32923bfdf2b79a5b9b80ea96682d
GS01673-DNA_C07.bam	de313e364329a065fc60c4017e26554e
GS01674-DNA_C11.bam	04e9e610a35690299f6032078777c49c
GS01673-DNA_B07.bam	ced80a3c0d327bc1456c6c7d4262cfe2
GS01673-DNA_F10.bam	3c16cabce06f01b21c79f046b53cc587
GS01674-DNA_C05.bam	c2a8e032da8b89d81d53401c905f9e98
GS00396-DNA_A02.bam	cf2d34c056bdd8613b384e12c7585dc2
GS01674-DNA_A09.bam	0a1cddab69573f1bc1637fdd220b5670
GS01674-DNA_A08.bam	89f89ecbf824cc03d4366e4b30ed4b3d
GS01673-DNA_D05.bam	b29d5927bf02ed514ecfd8a9e1041a32
GS01673-DNA_C08.bam	58a00c728097ddd1a2f6c454cae328cf
GS00824-DNA_D02.bam	8a88be75df55c0db9eea8ebf70e7be92
GS01673-DNA_B11.bam	f87f5d78f4fcd5ed47d54d122d7bb842
GS01673-DNA_H01.bam	97ccafa9ce3d1677c8dd1c50270e54e6
GS00823-DNA_E03.bam	d9eaf1ece03f5d2ff643b94314cf5fdd
GS01673-DNA_G03.bam	a808d1366c8e6e4fc52ac749c052b452
GS01673-DNA_G04.bam	c63ed7a070f04f49eb9d266a8070c599
GS00823-DNA_C04.bam	0703cfbe09b9268e66037df9b342fa69
GS00823-DNA_C07.bam	d7fdbe122d18eb201adf2fa12ca108c7
GS00824-DNA_C09.bam	2bd216c7df98335965a68d6d083ae5dd
GS00823-DNA_C01.bam	eba8a4c1bcc0388618406bb1419ea327
GS00822-DNA_G11.bam	5dbf5f0945d81b967138a4a4d23fb7cd
GS00332-DNA_A02.bam	dbd5da373325ecdd52d2ba86e17a43f7
GS00332-DNA_D01.bam	c648e8c674223c5f0847c95784d24e7f
GS00332-DNA_F02.bam	cd594794f83f95d63511fe7eb6eac449
GS00360-DNA_D01.bam	364bddf9bfb1627531f10d1d0da69345
GS00824-DNA_C06.bam	cd36dafdee0b3818d4e0961f5c1d1ec7
GS00824-DNA_C03.bam	014ef77b56deb172cd22e3e5684a5ba0
GS01673-DNA_A09.bam	99822a9e7ffc0e797e70a7ddb1ace6c7
GS00822-DNA_B08.bam	1cbc1e70e0765fbc9c54ecffb0be5a05
GS00822-DNA_C08.bam	928e98f0e637bda1bcde3d9932e2b932
GS00822-DNA_D06.bam	64980df4482a67ba1d10fd1ff896f319
GS00396-DNA_F01.bam	f01bc81076209796d428bb1f6504c796
GS00824-DNA_B06.bam	cdaee0d35c7feb066459f147f06f1124
GS00823-DNA_B11.bam	0b9ba9f0c26bd6a02dbf49eb9a3c4eb7
GS00823-DNA_B08.bam	4df250726602a99e24cd2db4401a54fd
GS00822-DNA_F09.bam	b5d7b7e7bc39f24658653cf70e3d99da
GS00822-DNA_F10.bam	375393b488cf8952846d357ff2a806c0
GS00822-DNA_G02.bam	4e163fdc323a21e06ca8f7647c66dbcd
GS00822-DNA_G05.bam	a1dbaff76e9fc2e0edd7cae92dbca231
GS00822-DNA_H06.bam	8763255f46767802b7d3ccbed233fd37
GS00822-DNA_E10.bam	1aec37647d41b32c45f919f867243281
GS00822-DNA_E05.bam	a8d1aa294eb2b531f0b050a82743179a
GS00822-DNA_E07.bam	345c1fdc726fba19f24c444345c47090
GS00822-DNA_E09.bam	b95085c09b6d871efdb4bf05e898a82a
GS00822-DNA_E01.bam	169480ef4f870e4a0a47290f3c62a414
GS00824-DNA_E11.bam	3a5c86a2944314b2776442dd6ca7f19f
GS00828-DNA_E05.bam	7323a98f44563170278817fa68ff9000
GS00824-DNA_F05.bam	c2078f1ab9f5b021c37396d03406e045
GS00828-DNA_E02.bam	5f4e1e331e87ca3f3447e0e046ce21d0
GS00828-DNA_D07.bam	5ffe3d3ef371f5777630265b613e0659
GS00824-DNA_F08.bam	c70784c2a17388e30d4e2fce3f38a8d6
GS00828-DNA_B06.bam	3a1cc3f587b4d48e3597c18f094b71fd
GS00824-DNA_G03.bam	c1b2d70791e12c672f371ae14eaef0c9
GS00824-DNA_G04.bam	e2066cde98bdfa93d8dad87fb74b5de2
GS00831-DNA_B01.bam	4d8c40da75c0c913896d1d8518c2a8b6
GS00831-DNA_C01.bam	9a1cdadb41eae44129636ddd05324748
GS00824-DNA_H02.bam	95d04947d6e7f4c1d8ba8380419d1d84
GS00830-DNA_H10.bam	985ac8a03d3ccc73f5b7a744cdfd4dc2
GS00824-DNA_H03.bam	743c4d4437444cc3bfe89ba219c94db2
GS00830-DNA_H02.bam	b73373da50f74cddd002cb27bc3db9ab
GS00830-DNA_H05.bam	579a4245181ae1d2a18565932b3fe438
GS00830-DNA_G04.bam	1c48d4b0ca1f40aecccce82f3ea2b456
GS00826-DNA_A03.bam	a69dac6a3136fa477b3489e16d1c2033
GS00830-DNA_F07.bam	167efd1b749fc45018530065437487e4
GS00826-DNA_A05.bam	93beffd5f0e0027431d15fb707a1ea34
GS00830-DNA_F05.bam	43e916d5553e5d49bdb6d2a16b8f0698
GS00830-DNA_F03.bam	2930bb2f6a8ee58f63765b87da70793f
GS00826-DNA_A08.bam	9ff86e66ead7390adb7091bb445deea3
GS00826-DNA_A09.bam	0491721fd021d823716d7fa7351dd909
GS00830-DNA_F01.bam	4ac005e8e0a90e4adabd34edceefb832
GS00826-DNA_B01.bam	9909c39ee767ffd60abca4ca0ce63d99
GS00826-DNA_B03.bam	b9a65239f390115e88a249ccbc81f886
GS00826-DNA_B04.bam	cab7ebaf7310a97c51b96adf12fba9c0
GS00826-DNA_B05.bam	9ef34845e5b634c8aeb92894a2b66891
GS00830-DNA_E02.bam	29a9808a1d45eaf6c54e4419f1a4c151
GS00830-DNA_D09.bam	d1454e1f2c522c83d78078d20ec1e930
GS00830-DNA_E01.bam	613e3db2cd79049fa1336200f058487f
GS00826-DNA_B08.bam	8bee9c0735e919f8667650994b955045
GS00830-DNA_D06.bam	6afbdde0b506a4a13ab061be48b3d651
GS00826-DNA_B09.bam	bff09faf42cc1306f9c3568041186e02
GS00830-DNA_C09.bam	cb5ecd4eebccc1b81d92b187b9b8eea1
GS00823-DNA_G07.bam	ff23552a09cd85656ad9eed2c200e3a9
GS00830-DNA_C01.bam	8d2ba08b29bcb5d624cdc2abe7248cff
GS00830-DNA_C02.bam	12fda462fcbebaca8e0e77c45c9a4c5a
GS00830-DNA_C04.bam	4e597d47fa3a918f4e5f72473acf197d
GS00830-DNA_B08.bam	1ee51b3f5434841c79d406719a8c34c5
GS00830-DNA_B04.bam	f339c6005b9a7b744f5af76b5605c20f
GS00830-DNA_A07.bam	c34f7d289d3944115ddd0996adaa880e
GS00830-DNA_A10.bam	8b5bbbc105dada9ef2e3833061fe1947
GS00830-DNA_A11.bam	14ae02aeb03fb8653a37a879dc8f050c
GS00830-DNA_B01.bam	ba99d610126e374dce9f914742511403
GS00830-DNA_A02.bam	27fed1f935edb9c8006899e278ae2050
GS00826-DNA_D06.bam	e0394ad6f62037769ca965fc9ff4e87b
GS00829-DNA_G05.bam	384d5d968242110d55fc0d980c1908c7
GS00829-DNA_G06.bam	bacbb7e8956d2b4dd7581772ebc3e521
GS00829-DNA_F05.bam	ebbc4b1dce56843edec1b7f633e86942
GS00829-DNA_F06.bam	97f2f4da1a433bc55fac350834dd25cf
GS00823-DNA_F11.bam	541af639d9898333e3f8e2112aec5f89
GS00829-DNA_D06.bam	82526796860e077879b8230e5108e839
GS00826-DNA_E09.bam	e6f54873bb77af8847552698d0641242
GS00829-DNA_C04.bam	999f68d4ac4036c3f4f853226b537f9b
GS00826-DNA_F01.bam	8a407304e8aa33b25ef2429c288ad4ec
GS00829-DNA_B05.bam	58a120efe04d2fb9433429d9112837b9
GS00823-DNA_F04.bam	6fa4dc132ad28f7d87242065e13da7be
GS00822-DNA_B04.bam	55a65c4f147c049f6dea7cbeacc27ea1
GS00829-DNA_A10.bam	269fdaec563a50341a8519294446bfdc
GS00694-DNA_E01.bam	666fcb01354604b367866f5372759883
GS00829-DNA_A05.bam	cb04c272f38450e4b21a009c59625a25
GS00828-DNA_H04.bam	b10bf6363ff25229c78f455a272a0446
GS00828-DNA_G08.bam	e7a00c08979221a2dcaa1c1d6d088d6a
GS00828-DNA_G04.bam	7f3a5e946126d9237ba8e570b93dc7f0
GS00463-DNA_B01.bam	b88bac27371dc71043b31e7f54b93dfa
GS00463-DNA_A01.bam	44c8244b7f190685f8beb88dcbda4d59
GS00828-DNA_E08.bam	56d62a0dc19fe9ca930e443d4570ff48
GS00826-DNA_H03.bam	2513394618aa163d9436b8073f36eb15
GS00828-DNA_D03.bam	5e6f33facf32f9519a9ec8349647cc6d
GS00826-DNA_H05.bam	c48b60d33667ee409b8f07f58e65c702
GS00826-DNA_H06.bam	e716b20dd110dfdb2a8b2be420bf43c7
GS00826-DNA_H07.bam	08e7a23ff2a95aebbe3c21f22c36e473
GS00396-DNA_H01.bam	5293e14c9b23bd552a7efbf1214fb6ac
GS00828-DNA_B05.bam	01a561b90011361bae8ab9504fca385d
GS01685-DNA_C01.bam	52dfcb14faa7ce7d9a9248aa4ceae756
GS01682-DNA_F02.bam	136f20ab7bb2eb3ccfafebd3199d191e
GS01685-DNA_A01.bam	a22157ae33b6b5925405d5eff747225d
GS00396-DNA_C02.bam	e398ce64ec27f40d527eac72942d6875
GS01682-DNA_B03.bam	d2fca5c7d07d0d8f6a96ae30c10df724
GS00396-DNA_B02.bam	c9c8531a1e20fc5f7995d60ace1c3481
GS01681-DNA_H06.bam	0d1e8118cebe1d76a9e0217d6f3ca082
GS00827-DNA_E03.bam	be36f50986060895d7dff5b2f8778016
GS01681-DNA_G07.bam	9fe7b9f9b322ffaf4e67dc88393610a7
GS00827-DNA_F06.bam	6c63ec2c10747390fa4f8475d4fcb532
GS01681-DNA_G03.bam	2a0a4ab51af4f870fa0a42625df15e3e
GS00827-DNA_G01.bam	5eca9c6daaca7e5324dc8db51e9c3002
GS00827-DNA_H02.bam	2ac3d29d4f6cad10a51f869d3527725c
GS01681-DNA_D03.bam	64bdfcbaedf241ee6c3230f5c2ecb78b
GS01681-DNA_B08.bam	7ee09d4f5ae3ab7173762af225a90244
GS00332-DNA_H01.bam	a0be4f4570b95daf211ff718f1610b40
GS00828-DNA_A01.bam	a8a904eb48a4b1ff659cbb73ed2bc399
GS01681-DNA_B03.bam	181da9e3bdcfb641c30ebef91a525c79
GS00332-DNA_F01.bam	43a2ec604c7f98ca8274c7a5d7023ad4
GS01679-DNA_G01.bam	3ccaaaff2143b27b6d56f3878b6cf9a4
GS01673-DNA_A08.bam	1f84ee92cc7ea9b090ff73b75b819628
GS01679-DNA_E01.bam	2a646926a9a9f20231fad44b461f7df9
GS00332-DNA_C01.bam	4eb9b2f1b1fde654fbf39f78f30b2e80
GS01679-DNA_B01.bam	ac292e854c05ff505b5c1ec04064506e
GS01679-DNA_C02.bam	741086d89f6903baf28f693b0ff4ae0e
GS01676-DNA_F02.bam	f3f99f2e83a5be47e0ac784b49c0db52
GS01676-DNA_H01.bam	533e4501d1a00446c5be1cb35fe04cf8
GS01678-DNA_B01.bam	c4daec0e141ae29800e380b83a78d125
GS00429-DNA_A04.bam	44c84ea6f1977ef56161057ee233d53d
GS00429-DNA_C01.bam	1a9bc22d94dd9760c2ff226e05523686
GS00463-DNA_C01.bam	442d3f3e542386f87d8c5b845b6e1aaa
GS00463-DNA_E01.bam	793c69a5d3ddbea1e19f30de78ea21a3
GS00463-DNA_F01.bam	c61f501551afb8fac966462ebeab36ec
GS00694-DNA_C01.bam	063189b942a01f554246ed0edf8a0ac4
GS00694-DNA_D01.bam	6281406b9c9cb5abd298b0c967c65a50
GS00822-DNA_A02.bam	35a76ca9a8e00c14a297a73949d92a41
GS00822-DNA_A03.bam	c2bb54d518f4b5a2a3cf22e7afeb3148
GS00822-DNA_B02.bam	1e4ae541faa470d4ef70fcf89ddaa036
GS00822-DNA_C01.bam	40182cd1ea9fb24f8d94346b955063ea
GS00822-DNA_C06.bam	dc9790b085dc9f14bdc5400aeee3d054
GS00822-DNA_D07.bam	2bd8999c3daad728fd580c4e6f6638a1
GS00822-DNA_D11.bam	cab13c8a8114f94dfdf86a1cfd44e8b8
GS00822-DNA_E02.bam	c26c2eb7a2c73bb153082c079f0df6b8
GS00822-DNA_E04.bam	47756c9b21a4a8d9f604cc1aa07a784f
GS00822-DNA_F02.bam	2d85f3558b70e96625ffd73e10aa490d
GS00822-DNA_F05.bam	bdf1703e5815b526f7d91738e8519eb3
GS00822-DNA_G10.bam	656d4be63ad5ecdc45f5d9686c275ac4
GS00823-DNA_A04.bam	acb6f2714874b2e063fb118904e3904b
GS00823-DNA_D04.bam	f014b4dca4d140ef9a31cc2f17b22493
GS00823-DNA_E01.bam	6255d51fcfc899ed9405a42a192707ec
GS00823-DNA_E02.bam	730ac57aea615efdf89ef464f4ef87a9
GS00823-DNA_F05.bam	7c521c6de9c7e082d4dca210f2b5052a
GS00823-DNA_G02.bam	8f63e271b34ada63374f19ad270a7a52
GS00823-DNA_G03.bam	9472bf971bdf421c38d2e9dcf16e4d31
GS00823-DNA_G04.bam	02dced503f9ff66e36849bea7b652e5f
GS00823-DNA_G11.bam	d6c3c58b212d1a9e08e202caa5ae83c7
GS00823-DNA_H10.bam	e3f85827ef695cf5d8e52075d0d22705
GS00824-DNA_A05.bam	f781248924fa12a219981ab61d6d3003
GS00824-DNA_A06.bam	693145125b558f4295f72be8181f7fb3
GS00824-DNA_B01.bam	a313fb1e27b31fb29a9eb3e4c55ec48c
GS00824-DNA_B04.bam	edfc72ccd906da98dc13a14853fb57f3
GS00824-DNA_B09.bam	ceebead5170fe6d1b794f985fc12ac9d
GS00824-DNA_C05.bam	7a6bc1ce68d3f20074dfb7c5538f78ee
GS00824-DNA_D07.bam	7273645bbd36533c3174564742a97692
GS00824-DNA_D08.bam	403197d1cab8d3f04578e3b2dc37b616
GS00824-DNA_D10.bam	8c3708214e59528f8eecb699bdf5f658
GS00824-DNA_E04.bam	9bf4c7df7e892b8f9271d1757c1d4762
GS00824-DNA_E05.bam	608ee0858b0fae356f589bd433559ca3
GS00824-DNA_E08.bam	e2cb6ac2418fb962a9f60fccd0443a98
GS00824-DNA_E09.bam	2fbd6c49c45029c217f70d73514caddc
GS00824-DNA_F06.bam	bbed962be3c7338986901104fbc4cf0e
GS00824-DNA_F10.bam	293801af4b563892657c31d98a1b98e1
GS00824-DNA_F11.bam	8636da100d4969a464950c4069f23ba6
GS00824-DNA_H11.bam	b929629530c52e3e18ee85df09338957
GS00825-DNA_A01.bam	f9981bf4c7abc87639c47f56849e8565
GS00826-DNA_A10.bam	d987a786106cd067acd0609cb7a80875
GS00826-DNA_A11.bam	4a471d30152061f343549c848e967f55
GS00826-DNA_B07.bam	3ace4e00c6aa22010ae304c8277fddbe
GS00826-DNA_C01.bam	2865662396cd98465c3c91210e3be4db
GS00826-DNA_C06.bam	aff63e86567eaa67ce509a2a72269cdf
GS00826-DNA_C07.bam	2d8b4e5e6f437e95cab193d1e669b9b3
GS00826-DNA_C08.bam	076b9ed39dca3a404eb31bf790778f2a
GS00826-DNA_C10.bam	5f337f1496170ee5ffa62732be0dfe29
GS00826-DNA_C11.bam	a095f6a7984292d0cea363d8c662e80d
GS00826-DNA_D05.bam	50733ddb7d29a841aad96fbf10f95f1f
GS00826-DNA_D07.bam	7576bb94020b71b4a7a6c474351a4356
GS00826-DNA_E02.bam	eb0a1b529fa03b0d1217373dbce592eb
GS00826-DNA_E06.bam	919f521852df582f8b090d0b6d0283eb
GS00826-DNA_E07.bam	081551c1adf8a54c1300311285c74e8a
GS00826-DNA_E11.bam	c5dc3654cab2cc7f91d14b22641f25f5
GS00826-DNA_F06.bam	810d20c6f770b641577b68dc1026644b
GS00826-DNA_F07.bam	73948714be886ba6463ee97827cbdd35
GS00826-DNA_G01.bam	98884c67fdc2a45a6c14b183ac27b035
GS00826-DNA_G08.bam	be32d3e0be3c141e1b976fbe1a48cd18
GS00826-DNA_G11.bam	ad125c958e86ee64bb57d9d929d9fa5c
GS00826-DNA_H04.bam	3d0ca44242a781f347b88fb32e7a73de
GS00826-DNA_H08.bam	70c7d3f17beafe41cf3fa0aa9d381d0e
GS00827-DNA_B07.bam	98b97e08bb76043c2d470db55faceb91
GS00827-DNA_E01.bam	ea3e10ab35aa80f962c55ea80b4b1aad
GS00827-DNA_F01.bam	7062bb02ccd694981f6e6696c8456ef3
GS00828-DNA_A03.bam	a3166b4cdd221e9c6f93dbfe3bff023d
GS00828-DNA_B01.bam	7dfef9c00acccba7a4bf11450e2eec86
GS00828-DNA_C08.bam	2f94e92f42ce2af972be36eeae47ba3f
GS00828-DNA_C09.bam	2bc0a954dda1bd6d3923dff7b3afa74f
GS00828-DNA_D08.bam	5ae6b8624aa897a0ee31503825ed689b
GS00828-DNA_E01.bam	7ef2032c60a6d98c1802153ddbc59dc8
GS00828-DNA_E06.bam	e8e471c3d26a4f60c572d7333b3887a3
GS00828-DNA_F05.bam	bbfa8283db5c9482fbca1caed7dbd236
GS00828-DNA_G01.bam	af967f936e7caad4ba968065b507bcd3
GS00828-DNA_H09.bam	18a679c9c48c4d878d6416d4ecbdd370
GS00829-DNA_A02.bam	54322281b5ea47fcee27df06967a7a4f
GS00829-DNA_A09.bam	6a7f9f3939387bbd94dd2f3f972d0e08
GS00829-DNA_B08.bam	0df4f5cb33fd76ab6490ec8942997e0b
GS00829-DNA_B11.bam	02e8a35eec1cdd6ee55b70026b2a96e8
GS00829-DNA_C07.bam	2eba78a792cfc99a8b73f84f6d844e69
GS00829-DNA_C08.bam	cc80fd4984c6ecafcff7bc7613a32679
GS00829-DNA_D04.bam	dabd830ea16bd543fc0d26c3a8014e44
GS00829-DNA_E04.bam	05f3bcbafcc6104c00dd3f797d644c23
GS00829-DNA_E05.bam	3e6b033a4a7eab969a2d04f980a68e43
GS00829-DNA_E06.bam	b5177934b9e11019cae8672aad946237
GS00829-DNA_E11.bam	877bb83411c929300b2eee84cd5cbf82
GS00829-DNA_F02.bam	3d884e96706dc7369076d24e3b0d4a93
GS00829-DNA_F07.bam	5677870e7a5465ab2868b8e870fb5978
GS00829-DNA_H09.bam	d897327043eccf332edcaa71ad06038f
GS00830-DNA_A01.bam	459a4f1248804ce6fc0a72b774ed7aa2
GS00830-DNA_A03.bam	7a257e506ffdbdded37cc511c032b491
GS00830-DNA_B06.bam	a7305dd252aa1601beafe6ec19b9d1a6
GS00830-DNA_B11.bam	d7d2efed663a0227050ec3b5ec5d9561
GS00830-DNA_C10.bam	f26333dc06b97fc9c6dd4b7659ffe9da
GS00830-DNA_D05.bam	86175d2656232873f712658d0549896e
GS00830-DNA_E04.bam	3ced86b605167594da18c2686af86c6c
GS00830-DNA_E06.bam	fc7c5acdd2532847db86bc55a1f3c285
GS00830-DNA_E09.bam	225b271f235c0e29bda1c8a12cec18b6
GS00830-DNA_E10.bam	bbb9fec5f7b135ea9c1cc1ae22d41aed
GS00830-DNA_G01.bam	a09260d98e9e88db0f57fa3d540d9d6f
GS00830-DNA_G09.bam	5e2b8f25cd2b30ab94020e3db8d95124
GS00830-DNA_G10.bam	3a2694eff1c3c8ee4c2a050601cb57bb
GS00830-DNA_H09.bam	abeb57fa0824373157810c04cff2374b
GS00831-DNA_E01.bam	55139fa87246ca7ba68153fd7ae2ec67
GS00831-DNA_G01.bam	6662431e1e576d32b598eff0458b9f5e
GS01673-DNA_A01.bam	0b7743a8d239c7336357797e5f9ab728
GS01673-DNA_A04.bam	2131028dd3b02ec5cac0aee6029e25e7
GS01673-DNA_A11.bam	d066282d6845e91182ac68abf1dd1a90
GS01673-DNA_B02.bam	b7d0fa8a372316a376f9ec40ec8f0f01
GS01673-DNA_C04.bam	37ea2a28b3a051759ba20a46e3f09585
GS01673-DNA_D04.bam	dd92672d8e130ae634256d339b6fb196
GS01673-DNA_E08.bam	27893102b09942d4b420c2aa6490bd3c
GS01673-DNA_F04.bam	c207d65cf7eb682107ccb3170c61fe1d
GS01673-DNA_G01.bam	4a869960944426cee3139e710d2e96ba
GS01673-DNA_G07.bam	9ef69a28745c2ed446e4423ff4cca23f
GS01673-DNA_G09.bam	30b402c1792d059fe699540dec94653d
GS01673-DNA_H05.bam	31effba6363d6e52601bdf0e4fcc1743
GS01673-DNA_H07.bam	96f522c29301b3197381b50234e59859
GS01673-DNA_H10.bam	3e6f47056d431fae2fb5d6ede64723b5
GS01674-DNA_A07.bam	a5c0dd97ade54a50a83a80a2355a0e74
GS01674-DNA_A11.bam	d899fe3c7c499fb25b997f5ba89b617b
GS01674-DNA_B05.bam	a55d8f50a92b91abe656c385fce2a3f9
GS01674-DNA_B09.bam	6b66335bf91a3e8d0ffcc6c408f33ad0
GS01674-DNA_C03.bam	aa9154ae9186e108bd053348f5c2523c
GS01674-DNA_E05.bam	40ae617d4f5b94d689328713d32df265
GS01674-DNA_F03.bam	34d4c688f3840262570dc48991ac1ebe
GS01674-DNA_F07.bam	2a1c2398cb5e6f5c832ae73ee055003d
GS01674-DNA_G03.bam	1aef9c4a39fd13d99168ee0572d29838
GS01674-DNA_G04.bam	abee1e6a8a4d43decf772bd3b4ae2fd6
GS01674-DNA_G10.bam	b64a2e2446712cfc61d125dc8e2186dc
GS01676-DNA_E02.bam	dfc2eee3f6bb7c436093ea062343386b
GS01677-DNA_B01.bam	24a56e17d55086c972a3dace8902ca01
GS01678-DNA_F01.bam	970f7e620bf16977ef8fd84fe58b5089
GS01679-DNA_A02.bam	3b4f03e6646620bda3c4637b2179d0b5
GS01679-DNA_B02.bam	2548b91c25b52268e874cc38bf1ffa2e
GS01679-DNA_H01.bam	384d5982b2ca24eaef605549ef13a5aa
GS01681-DNA_B01.bam	c85f806fd850eec9ff61d8d5cc84afb5
GS01681-DNA_B07.bam	105352965f4298a1f4b1486fa65cd729
GS01681-DNA_C05.bam	32f03437f528062279a77afbb8549ff1
GS01681-DNA_C08.bam	759078145f5e9eaf88eaa753e5f100bf
GS01681-DNA_D04.bam	0fbda9b998a285e38d6f0f0850389418
GS01681-DNA_D08.bam	2c7a1b50b33354896dad853318ad4508
GS01681-DNA_F04.bam	056cc0c43b14d47b26e69f7249d3492a
GS01681-DNA_F07.bam	ba910053e7a6bd5bed3b8e426e6fa21b
GS01681-DNA_H01.bam	c5a6384bda8553686cc4dc05f8749874
GS01681-DNA_H04.bam	4496234211de28f1908140383d82b54a
GS01682-DNA_B02.bam	7c4eed2b48c9bff1045fafa43b98f24a
GS01682-DNA_G05.bam	570358f7999353dabc1dc90ec0fea263
GS01685-DNA_D01.bam	ea52f2c724d8bbeec3f2749d714c6812
GS00826-DNA_E03.bam	f045d9d3919c76f80eb3df7ad17b1b9c
GS01681-DNA_G02.bam	ae949c3b25b526a511addaa000a02205
GS01681-DNA_G04.bam	7aadd961464f515aa0450f2d3bc17428
GS01681-DNA_G06.bam	a5f0d349e5f58e0a48c0a050d9bdd2c6
GS01681-DNA_H07.bam	b031f747b06226cf02f466c6dafedfaf
GS01682-DNA_A02.bam	4e733ab2f9013eb12869b8e745a3994e
GS01682-DNA_A03.bam	72d155269303049527af7d5eb568e942
GS01682-DNA_A05.bam	9663616c51e75cbb0739869491d3d2da
GS01682-DNA_A06.bam	25a28b5bac409f5483f7575f5292fad0
GS01682-DNA_B01.bam	f627e4276a809bbf73a275ce67e77a3c
GS01682-DNA_B04.bam	f0a33c69e710e04101b2319b7f64c7f2
GS01682-DNA_B05.bam	3b2d4cc10d987ed8bcf32efbdc918959
GS01682-DNA_B06.bam	16aaf37a14c925a0d229abd9eed9b8ca
GS01682-DNA_C02.bam	d3a751420b52ddbf395d974cfa763581
GS01682-DNA_D02.bam	2cd5eedecfbae0f2b3ba2eaa27c4f951
GS01682-DNA_D03.bam	c174ddb2747a5cc57deeb9c64d7933c4
GS01682-DNA_D04.bam	3e2abe8c4cb50126b5fbaa743ed0b08a
GS01682-DNA_D05.bam	cac78456ec76149fad2355d027f07b4f
GS01682-DNA_E01.bam	912c37b74876d399a86f29f2c3311b0d
GS01682-DNA_E02.bam	977f955ddab2edc1ad684f0ec81c3c32
GS01682-DNA_E03.bam	bd502308d3d2653a15b795cf2f561104
GS01682-DNA_E04.bam	2f9b62243d1470b2c81c7f6d1da49763
GS01682-DNA_E05.bam	fbd17f322995db26b66fb5f5377c9449
GS01682-DNA_F03.bam	3320954d52b9b99a50dbba8d45ba3041
GS01682-DNA_F04.bam	780c6e0f5848e2728e4f0f58028500d1
GS01682-DNA_F05.bam	d40e0e1f3243a1232080185d4a472e67
GS01682-DNA_G01.bam	7552a37254cd4a883b646a4e66409243
GS01682-DNA_G02.bam	c11d6d7dc713fe1b16e2fcc2101c777e
GS01682-DNA_G03.bam	079e9525f47f2ea5ba26a334e9d7b1b4
GS01682-DNA_G04.bam	89a283ce0e1898db357b62ef985dde77
GS01682-DNA_H01.bam	9ea8ba3c5112bd95fa152fd3a2abd93a
GS01682-DNA_H02.bam	24bb4b505ae0dce61c45c4860edd2653
GS01682-DNA_H03.bam	151d6a954161a99dbaa2c687fe855094
GS01682-DNA_H04.bam	c791a31045b1e4b0ae23fab46e687902
GS01683-DNA_B01.bam	ca4e10ffa8974241c61369dbd7e29436
GS01684-DNA_A01.bam	3c22ffcbc9bd23e00657bc8cd149458b
GS01684-DNA_A02.bam	d918babbcc188857f2a2a486ddd7cf72
GS01684-DNA_B01.bam	be9758c97b13f80712be1ec4f9f234a4
GS01684-DNA_B02.bam	9716fdbb09940864456cbcd3b0d69de8
GS01684-DNA_C02.bam	c92e9f5851b0392f75a5230f6171d0b5
GS01684-DNA_D01.bam	992fbc3eb0a5a9d62ccf5b2984c5a8a8
GS01684-DNA_D02.bam	609c2a85ef13aa8375024278935e805c
GS01684-DNA_E01.bam	0d6dd734a97033f7814fc9462d894f2f
GS01684-DNA_F01.bam	61036af718f4b73ad447feb4165b2d97
GS01684-DNA_G01.bam	3738066d03fbb7ce59c055433f68fb59
GS01684-DNA_H01.bam	7c806a8d6de8558985b0957accc7c6f6
GS01685-DNA_B01.bam	1369d0482d9d9660e65d8580a79b8522
GS01686-DNA_A02.bam	56d7c54b3bcdc6e408b409c1524bafd0
GS01686-DNA_A03.bam	915e064654f60032e269222725180aef
GS01686-DNA_A06.bam	58dc84453fb0f64e197a0d42d14ed42d
GS01686-DNA_B02.bam	5fe51da0d3a6afbe0a88bcbe81250c40
GS01686-DNA_B03.bam	b37c4e6fb5197a26eb12d9a699cecb9f
GS01686-DNA_B06.bam	c82e8e7c35d68c256b1a3b14daca38a2
GS01686-DNA_C01.bam	63bddf1c98632667a77e8181eba72bd6
GS01686-DNA_C02.bam	9d4ad7e9b283c48cfec3af883da32633
GS01686-DNA_C03.bam	5bc8478bf3f353f4b531995e8ddad68d
GS01686-DNA_C06.bam	0c03705d3be7013ab6108f1a736fef94
GS01686-DNA_D01.bam	602130ff4882317615b1a17a52fe3f62
GS01686-DNA_D02.bam	a9f42fb8d57fb36499977e14d868e22c
GS01686-DNA_D03.bam	904b7c64c4adeb9c062003132d903bd2
GS01686-DNA_D06.bam	a1def75cff6ba8848097e3171e473c3a
GS01686-DNA_E01.bam	784529b7a810d0604bd8b7931b5e1f9a
GS01686-DNA_E02.bam	654931c8ab0a6f4e35f45bc8a08e2625
GS01686-DNA_E03.bam	f3ca90a55971d8b04b520a8c6fd051d4
GS01686-DNA_E05.bam	439dcb48d56c9656bd96a453f8af1948
GS01686-DNA_F01.bam	e61e4c12c8e7e5e84c92eed7caf1ce57
GS01686-DNA_F02.bam	94a092a3ba2ff7a12ee410e91829f19c
GS01686-DNA_F03.bam	90e4733364dacadacacbdd1c86fd911b
GS01686-DNA_F05.bam	6f8162ae9de7eff22389129547e708b5
GS01686-DNA_G01.bam	186e78c148935f8a86d5f16b50d58a46
GS01686-DNA_G02.bam	198a1001bce7c98abb64188e8ee4b7ba
GS01686-DNA_G04.bam	be3ae988edb7c14b58ee5b83dcaad796
GS01686-DNA_G05.bam	6e325786a53655897aec1340ec25d540
GS01686-DNA_H01.bam	7512910690148caa0ac49b17052a02b2
GS01686-DNA_H02.bam	658a31960da0a99f15b23df8c79bb7d4
GS01686-DNA_H04.bam	101992a8ae6376da3a1f29a4902d7c03
GS01686-DNA_H05.bam	4e6d7f3cacfed19b4a87206eb73ea059
GS01858-DNA_A01.bam	33e827e84269fbe1e610c705e32d6122
GS01858-DNA_A02.bam	2a2ca85c49dbd0402038a906866d4f6f
GS01858-DNA_A03.bam	9e57cb409b7471a61d3addb144f3d51a
GS01858-DNA_A04.bam	2fe4d7cd6f485bc8f999c805809aec76
GS01858-DNA_A05.bam	71fc2ee955c9d0ee323f3307b22f205c
GS01858-DNA_A06.bam	7b7de6c2857765669f572714dd6775d1
GS01858-DNA_A07.bam	315ab4728d5227969162058f6bb4f7a8
GS01858-DNA_A08.bam	b85ebfe3406711ef1bfee915736dbc07
GS01858-DNA_A09.bam	2d33a79d91f01d18cb4c4dee64f91890
GS01858-DNA_A10.bam	a4f729e01f6db9a4d16ce65d41278988
GS01858-DNA_A11.bam	cd7d3c09161007a600d799041921e816
GS01858-DNA_B01.bam	0b3e1615f17511e38a251e313c2194d9
GS01858-DNA_B02.bam	19d4bb17ea1e11a173996990c6febb51
GS01858-DNA_B03.bam	2f691aa3b67868fdc19d3488541c9d1e
GS01858-DNA_B04.bam	5dce76f06fa079b8b9fc440eeb5901f7
GS01858-DNA_B05.bam	bfc7204c8a4dfad70cb89221e05a20c4
GS01858-DNA_B06.bam	acd58676e5aee4f44179efece02e109a
GS01858-DNA_B07.bam	9f088e98a3848872d22afd7079f9e914
GS01858-DNA_B08.bam	7e3da2a0dc392ee189566cd0a1632afe
GS01858-DNA_B09.bam	2fd2eb6bb83102b495a3a8837917e366
GS01858-DNA_B10.bam	a07d38c3a0d7518a07a9f1faffb5dfa1
GS01858-DNA_B11.bam	0bfd0f777ec61a710bb13735035da9c3
GS01858-DNA_C01.bam	6061ab7b1703aa605c6e2ce248ec951d
GS01858-DNA_C02.bam	a7c6a6ab7258acee1e9fb024d741208e
GS01858-DNA_C03.bam	a3654ef6fb39764290d568f4ba064d3b
GS01858-DNA_C04.bam	4cd953db943c640aef1e110e5bf770d8
GS01858-DNA_C05.bam	31178a42eb266117f42194db0f63a5ea
GS01858-DNA_C06.bam	4578107bf6e4936dcd3435a34c97e4d0
GS01858-DNA_C07.bam	75c17469f861be37344b879579983ea5
GS01858-DNA_C08.bam	23cd5546c6e53cf11ddfae625724cb10
GS01858-DNA_C09.bam	e19e6161477d36e68a77a6e267cf3c36
GS01858-DNA_C10.bam	7c4f8f5e640ec1afd0d10c6bd55cea13
GS01858-DNA_C11.bam	52b590f91895a02a9adaf9fbcc439e74
GS01858-DNA_D01.bam	60cbe9d20a96611e39f0044b2a851f66
GS01858-DNA_D02.bam	3f362379c91f52750b7a5707d5a1aa5e
GS01858-DNA_D03.bam	ce04875c801439f6beeec4988db1bbfc
GS01858-DNA_D04.bam	c2942f1b02c62984b2a37e3aae041197
GS01858-DNA_D05.bam	4ad85c713ea1c104f524b2bcce8bcf3a
GS01858-DNA_D06.bam	d862e6549ee4cf31b466a17f9d26cb00
GS01858-DNA_D07.bam	0d8bea07ed6a8bb1b29ac03823f15196
GS01858-DNA_D08.bam	21122d5e12823f9b8a7938ccad6c7f92
GS01858-DNA_D09.bam	f724c93a7139f0eb4b90d310d4d8728a
GS01858-DNA_D10.bam	9efa5d9370d606c7d987e0e14f4d8d17
GS01858-DNA_D11.bam	1fdaee1a5b3a7c4d304ea2a68576195d
GS01858-DNA_E01.bam	50c6fd1d8baa9a28d3f01084255c9ca2
GS01858-DNA_E02.bam	fd3cbddb85ca8cd7461fb9ecf1848580
GS01858-DNA_E03.bam	a13061cb817099dc76239808100bbe4e
GS01858-DNA_E04.bam	45852b9a829f3b858f75237c57caa7ad
GS01858-DNA_E05.bam	95e406442aa3cb6436ffb2a6b80f02b1
GS01858-DNA_E06.bam	e4d3c5656eed03471431f97ef5115289
GS00360-DNA_A01.bam	35e2651f6b7d3f68d34a164b48a40f80
GS00360-DNA_B01.bam	e534cf8e72bc65c2660021dbc53828ae
GS00360-DNA_C01.bam	24931810a661c17f31fc4601f356a4b9
GS00360-DNA_C02.bam	058112ff40588e02cb5f906964fe445c
GS00360-DNA_C03.bam	cb9197072bd07b37be15665d6583a837
GS00360-DNA_D02.bam	528b87969f843ece13d5369af6d9fce3
GS00360-DNA_D03.bam	6b733fca16ef5e53537a05ee58ed01f0
GS00360-DNA_E01.bam	a2064d1a7034791993e9f3d225cc4496
GS00360-DNA_F01.bam	137c1ed84ad9cdb84b6896df3f15a4b2
GS00360-DNA_F02.bam	7e528ea1d1cce326d688eb5caafc0581
GS00360-DNA_G01.bam	f147ee358fdd3c3d2f6d36ef356ed735
GS00360-DNA_H01.bam	447b1840eb5c1e9112d9da4d39b1b266
GS00426-DNA_A01.bam	29102383433f7ed29bcf1c49f68822cc
GS00426-DNA_B01.bam	40093065c31118064a233e0f3e475694
GS00426-DNA_C01.bam	0367e79ca92d7f191db252c9cb6a7c4a
GS00426-DNA_D01.bam	27654d3c9fe6b9724e33e8ca0ae018e1
GS00426-DNA_E01.bam	6fcc1577633af26d191962a6050811c4
GS00426-DNA_F01.bam	c15d91f93f66956e50172dc9f82e9290
GS00429-DNA_B03.bam	20b8241f33b5f8eccd88864b7818d13b
GS00429-DNA_D04.bam	c48de0e25102dd01f7541fa4de79a5bb
GS00822-DNA_G07.bam	ca417f33161c0d8f2fe0b184c7cdcdcd
GS00823-DNA_D07.bam	ff2b651bc62e4c08df0461304aeefb05
GS00823-DNA_D08.bam	193c3383931a209b98abd4e851a983db
GS00823-DNA_E07.bam	e0807ca4680dbf506195ba4db90c1c1a
GS00823-DNA_F07.bam	3aaa2ce7af49551e3ec8c28b0b031bf5
GS00823-DNA_H07.bam	9d31da70898993666d26786352bce769
GS00824-DNA_B11.bam	b552f96c5c3d5ab039ff8375a0bfb32a
GS00824-DNA_E01.bam	69bd5b574a6e33b7b0a3ba081f0fb2c3
GS00824-DNA_E02.bam	4683d887bdf0152711f54aa6e8a16cea
GS00824-DNA_F01.bam	5383cb6356a5c6a8b9c2caf90b651ece
GS00824-DNA_G02.bam	29d92bc4d68c7d9e229bd11053189846
GS00824-DNA_G10.bam	4a7b61fc425cd9db8820aaad28747909
GS00824-DNA_H07.bam	c412a4e85c8f78d628b4e3f5a3c55c40
GS00826-DNA_B02.bam	2c48733950f61fcf9e13b2e585e59d4c
GS00826-DNA_C02.bam	179eb9e301ed1e30486ec381c7662e3d
GS00826-DNA_E05.bam	223b948a350afe2adf3d57898fd08737
GS00826-DNA_F05.bam	f62635a6cf2f9d7d06dd350d4c6ea146
GS00826-DNA_G05.bam	b5950941af74c0268c8e2171318372f3
GS00828-DNA_E04.bam	23e7c6db51c0bc169bb7d411d8ad549d
GS00829-DNA_A03.bam	e880b7fd019f3d262034808ef9a4ccf4
GS00829-DNA_B02.bam	781eb825feb819ede7e4fba7ce7248aa
GS00829-DNA_B09.bam	645afc536f58d67aca872af2975c3e56
GS00829-DNA_C09.bam	43ae1c7f5b331edb00694fc11e37ce8a
GS00829-DNA_C10.bam	a570e10dd27dca4a592b25b085b2e8de
GS00829-DNA_D02.bam	ee4b185ecddf0a50cb539fac42718d6d
GS00829-DNA_D09.bam	06bc97f1cdcaf7bb7a3be3e15dbd69d6
GS00829-DNA_E08.bam	a1fd30797a7f243b2157d3ca01aa7686
GS00829-DNA_E09.bam	88f92e6bd2893e5df635e26f88b31494
GS00829-DNA_F03.bam	ec67399342374d941054ad9ade4bc558
GS00829-DNA_G07.bam	2f2f5591b69cddeeddaf0c6ad603df72
GS00829-DNA_H02.bam	e2596d4800ed2dff575516077b571373
GS00829-DNA_H03.bam	4d27fbb5da28cafdc393fb96207e8f9f
GS00829-DNA_H07.bam	d5d2deb7e60954c5c737691166d968f2
GS00831-DNA_F01.bam	e11f3882fd1965c0e78b43922c316151
GS01673-DNA_A05.bam	b51575af1fd44c2372bf182425cda3d0
GS01673-DNA_A07.bam	f2b2d1029823b0d839e5fca7c38dd09b
GS01673-DNA_B03.bam	afdc9f1b3d5190055e7107c8f0f4db13
GS01673-DNA_B05.bam	5e1c19414cc91dd9517f6a47e699d8f9
GS01673-DNA_B06.bam	9f0ca50cb341fc667ccbbfc0080ba4c1
GS01673-DNA_C05.bam	da7d3104ddc4d0d09cff34655371eaa2
GS01673-DNA_C06.bam	128916e239d83f0d76705682d1cebf56
GS01673-DNA_C11.bam	97b3469077faa8cd3429a835c42846fd
GS01673-DNA_D06.bam	9f48f15b571dbd08e214e1bfb2251201
GS01673-DNA_E06.bam	0c37ef10b033c7473e2131a143b4379c
GS01673-DNA_F06.bam	7833bb0689f8f2a392dcf6c8d8258d6e
GS01673-DNA_G06.bam	106760b7c4f4add73c177e9c840a2d7e
GS01673-DNA_G11.bam	7939776016b7d88eaec169dae5a9e298
GS01673-DNA_H02.bam	ff01fd218a58243f6ea4f3765225dba0
GS01673-DNA_H04.bam	8a1a515c16a3c09a0469bd2277f565bb
GS01673-DNA_H06.bam	21157ae232b6b78284cbd1dd80128400
GS01674-DNA_A02.bam	3cbfe71be330db8c5d17d0469deb71ef
GS01674-DNA_D07.bam	5f5b856ac0db3975f476e09a2f32a915
GS01674-DNA_E09.bam	476387ce71a6a64f8ab060b8a6a92e60
GS01674-DNA_G01.bam	08911ab0ddae0320aa13d04a75f13d68
GS01674-DNA_H01.bam	16f2fdb38e40ecdfaf8e59e3861f6891
GS01675-DNA_A01.bam	8dff9b7661fb1dbfa2cf38cd53696555
GS01675-DNA_B01.bam	8ef9c091f6538e3a4af90292bdf7903d
GS01675-DNA_C01.bam	b9ab3b65c9cea7a45788e078ccf1b1bf
GS01675-DNA_D01.bam	60f903f46226a668c8109da5a4def95c
GS01676-DNA_A01.bam	b6838fee872cb0457df39228d1dc6008
GS01676-DNA_B01.bam	8234a41c0a7e7a78abfc039d07b64d2d
GS01676-DNA_E03.bam	7c5d1bf0cdec1032297e8eba88899c4f
GS01676-DNA_F03.bam	650d6b3acabe99d33cae52d65a842e81
GS01678-DNA_E01.bam	e3ced818abf765afcb922baf902406a6
GS01679-DNA_D02.bam	8125b04fc1504eb2f2d87d4916663403
GS01680-DNA_A01.bam	0e4241a9d5e488861a68471950164771
GS01680-DNA_B01.bam	55e5f6e548ac984c18cb437e6fe1081a
GS01680-DNA_C01.bam	a158a234e8496037e05579cc57d7ae6a
GS01681-DNA_A01.bam	517658abd6f2434d969f07a7fe445591
GS01681-DNA_A03.bam	c949609cd3d92b3917b8dee20d306e41
GS01681-DNA_A04.bam	7670c0014460489fb2f6071c5d426862
GS01681-DNA_A06.bam	8e2b90cd2d533ca3295d0d5946c9a98e
GS01681-DNA_B04.bam	49955faaf304fc069f1bfa2e58ddaf56
GS01681-DNA_C02.bam	61b015b1a91c5097e7e6c185901b30df
GS01681-DNA_C03.bam	787afcf5f9adf9093854cb0fb62fe3cf
GS01681-DNA_C07.bam	c079eb281c2058e2879bb5cfa5c0bd96
GS01681-DNA_E03.bam	1a02ed5d6ce2db3889310506d4761cac
GS01681-DNA_E06.bam	a0d835834e8a4241f92e3c84ca493575
GS01681-DNA_F06.bam	ec791d0b5c5d653d4317776d41c9da62
GS01858-DNA_E07.bam	dce4d48c5a3ed33ec0bc4cbde6b2910e
GS01858-DNA_E08.bam	0e4674f1d6ea2e7d16f98d420ca724da
GS01858-DNA_E09.bam	8d4008dedff5551c66f0e676f80dff7f
GS01858-DNA_E10.bam	0fb864cf384a3f9991964c0ef579c397
GS01858-DNA_F01.bam	89cd1b5fd5ea98080c3968e51ae3ad94
GS01858-DNA_F02.bam	28c3d3f0a39eb72d4a2caed82bc7a26a
GS01858-DNA_F03.bam	fe99eb9da2013513e06db898086dd8bd
GS01858-DNA_F04.bam	6714b806d673bb5c43455da941c1d819
GS01858-DNA_F05.bam	a89ec0ce9a2b49fbb76eaef78e20d27f
GS01858-DNA_F06.bam	ff749d37b808bb307f2f7aa7f5a78b6c
GS01858-DNA_F07.bam	20a17b4a01e0803bee81400c0ee0dcb0
GS01858-DNA_F08.bam	b2bf5e9d103ee4c2786153d62632bb6b
GS01858-DNA_F09.bam	2f10ff01e9b14ad887b31a7c6aabe637
GS01858-DNA_F10.bam	f3a3c2dc94323e1faf48787048882f04
GS01858-DNA_G01.bam	01a1acd8fb412b82d66791f0a6d438c0
GS01858-DNA_G02.bam	e2213433875e3a561ad7e98a21ae89c8
GS01858-DNA_G03.bam	9b8e5be239894ab70455add029f909fd
GS01858-DNA_G04.bam	05dfb542d40e88e11c0d14f6fdc4b5bc
GS01858-DNA_G05.bam	be815c53ae85213647a41d38506919ad
GS01858-DNA_G06.bam	16a05ec57fa380f4900408f8e99ad4f6
GS01858-DNA_G07.bam	86b2e9a3a698d72c179e8787f1846d9f
GS01858-DNA_G08.bam	09d89519a22b8b6e802e9fdeee79990c
GS01858-DNA_G09.bam	65f9ea57daf392b8e48ba99f53d17630
GS01858-DNA_G10.bam	81666b563e4c15efb636e86307cb745e
GS01858-DNA_H01.bam	ac865f3b6584292aa518f732c5418363
GS01858-DNA_H02.bam	25b3f344f059f078fc441ff51ccf6b18
GS01858-DNA_H03.bam	c0e240fa5077eeddf4f1b35c2036f7fe
GS01858-DNA_H04.bam	cf62eaeeed28429a4ef451faca0143eb
GS01858-DNA_H05.bam	64cacf3b8a74ea1ca806e47d6ef56b0e
GS01858-DNA_H06.bam	af5bbadf6159e01f1b48895151bfb565
GS01858-DNA_H07.bam	94634b1c654abf854d431a8f98187fe6
GS01858-DNA_H08.bam	2430327f273f368a244ca5e307ed82ad
GS01858-DNA_H09.bam	ee321f45c0e3304af3087a3f2266d7dc
GS01858-DNA_H10.bam	dfc424f7b55b63e49950c7f3745434fd
GS01859-DNA_A01.bam	9a4143470e80b4f0d219e893e6d7fa9c
GS01859-DNA_A02.bam	31e03013da749e6f03392ecfaac03768
GS01859-DNA_A03.bam	413da090c4518e53ef4d3dd35ee54d0c
GS01859-DNA_A04.bam	b6ccafa60be3b93b6a30afa6b4d8c685
GS01859-DNA_B01.bam	8555a5300509aa6b6fbd8ef16920d168
GS01859-DNA_B02.bam	5d9999d51e3685c740920e1bea68cdad
GS01859-DNA_B03.bam	a8f0c8d85c658badade347ad1fb0d616
GS01859-DNA_B04.bam	842075e579da302f17a8eb606b0048e4
GS01859-DNA_C01.bam	831faac1529a16814c623914f72cf448
GS01859-DNA_C02.bam	a19992c28adf0f3a183dfba5c3931534
GS01859-DNA_C03.bam	2ec66a405d59c06c68a6fefeaa8eed0f
GS01859-DNA_D01.bam	3bfdb4d28bba5cae2f95d308e40de9db
GS01859-DNA_D02.bam	7f6c93dc28b16b54d1ae2a853f7a9722
GS01859-DNA_D03.bam	216fa79a3fcb985c95a5ab957ce39022
GS01859-DNA_E01.bam	0613508d0d8aeb1e0d14d5bb149ade6c
GS01859-DNA_E02.bam	43c8556f87314005561e66fcb3938233
GS01859-DNA_E03.bam	c61e090049224224df8522a2f868015a
GS01859-DNA_F01.bam	f91445a01160a68a29342c8ad4e73644
GS01859-DNA_F02.bam	0be5465f289e840ccbc92eccb3936c22
GS01859-DNA_G01.bam	cd1dbb18db71e21de2f91c5266bebf83
GS01859-DNA_G03.bam	b2e2f8102640046e3e396bc624557cf3
GS01859-DNA_H01.bam	26616683a4bccda1d7174400a168ef82
GS01859-DNA_H02.bam	bd24acc92a988ab0efc556e213123a22
GS01859-DNA_H03.bam	d5c83f8a7b5db7081e6aef7e04831fd8
GS01860-DNA_A01.bam	0d95b4e89baf998eb9d1fd2f264a457e
GS01860-DNA_B01.bam	1ee05b2f71d7f9d6f87e0ae943734a92
GS00822-DNA_A11.bam	6726a0bf94dd6f9e5e62ebede926c77d
GS00822-DNA_H10.bam	aae5304577d42b233bf7bbea0a8093e0
GS00829-DNA_C03.bam	a9245fe81c8b6b6163308554912da7ca
GS00829-DNA_D03.bam	e852c09f380bb32191cd0058d3f2f21f
GS01860-DNA_A01.bam	c1223dea8ebc2e162b98f0170351772c
GS02319-DNA_D08.bam	6f5f191200077756595f498431b2ec9a
GS02319-DNA_D09.bam	850fc821b732348eea7dc89d214b52e7
GS02319-DNA_D10.bam	5a4ab3c514c8880d705c30509728b230
GS02319-DNA_D11.bam	ff77fd08a93287a37e71fefba4f12323
GS02319-DNA_E01.bam	c4756c720164c692df845723c4b7c635
GS02319-DNA_E03.bam	260b7695d595f29b0570a78400b15f3f
GS02319-DNA_E04.bam	787dab39108f47ecc758ac9ef36301f9
GS02319-DNA_E05.bam	d8c6567170955640176f42665aae6384
GS02319-DNA_E06.bam	6561850ac240860aad82d139d436c4d4
GS02319-DNA_E07.bam	fe83c21608380ea97f88fbf4b8f88475
GS02319-DNA_E08.bam	3e4da085c637e35108303f75dceabf2a
GS02319-DNA_E09.bam	69574d37132b65190bf06d2d36cd4311
GS02319-DNA_E10.bam	9a0348dad909ecdc3991a82c247fd005
GS02319-DNA_F01.bam	2acbfe6313bb111cd561bb9a1bc5c32f
GS02319-DNA_F03.bam	bef3a115d9ca2a6efec5706823e02566
GS02319-DNA_F04.bam	177b91b640b07ded2c103a868a9bfbf1
GS02319-DNA_F05.bam	015e1970e18641c1ea3b4d88977b0f58
GS02319-DNA_F06.bam	7e06264dcc5c18e84cdd530c78d19090
GS02319-DNA_F07.bam	e43c442b54f810c9d6aaca2fccbc267a
GS02319-DNA_F08.bam	2b83416e43e5e47f539450d80dd3a606
GS02319-DNA_F09.bam	251167c406f7292810dff35fe7b40d13
GS02319-DNA_F10.bam	641eb2efcf0186bd79aae2c5850505c9
GS02319-DNA_F11.bam	f87615c4adbd9b55d2f44522493019ee
GS02319-DNA_G02.bam	0ccc7f3262a30ff177b403ad3174d8b6
GS02319-DNA_G03.bam	6a8a0b80858b0635105b757c90b7c0e8
GS02319-DNA_G05.bam	9a105959e99ea608d2bab40b7cb3989e
GS02319-DNA_G06.bam	fd10bf7a8b04cfc160effe6d1887df97
GS02319-DNA_G07.bam	f72e41bb12eacfbc165408d514e41978
GS02319-DNA_G08.bam	7fdf493de6d9b4abfffa051abc079a97
GS02319-DNA_G09.bam	6b1266b7088a856dfab90a2d9cf1abda
GS02319-DNA_G10.bam	d93599b98c298eaee8aebe716d249bc4
GS02319-DNA_G11.bam	71856dd0fc3e088f6e1c7f8459e6e731
GS02319-DNA_H02.bam	f33910a3386e208132fc29485e749ae6
GS02319-DNA_H03.bam	5310761efd386edf9707bb4e3d500561
GS02319-DNA_H04.bam	6dc7603800778cdd771da355a496c9f1
GS02319-DNA_H05.bam	ae9ef7a2233153c16c52d613c5f8bd66
GS02319-DNA_H06.bam	4eedfeb52ec1a719215e5984f656a433
GS02319-DNA_H07.bam	bddf3b0f7a1404371d54c8ac6d1d6014
GS02319-DNA_H08.bam	e91995e3142480e64110c61558d4a665
GS02319-DNA_H09.bam	0c09178d862f0848a086c59722b6b157
GS02319-DNA_H10.bam	251aa038ac51c2e5b3ba90534540fad5
GS02319-DNA_H11.bam	77151602e9ee9107f093bd714d7858af
GS02320-DNA_A01.bam	0a412dd6300e7a8d850ff9e97164c297
GS02320-DNA_B01.bam	ab96bcc8c345ec4b8ff45e1fa93fd5d1
GS02320-DNA_C01.bam	61fa5a4793c4bbac475835b681d582ee
GS02320-DNA_D01.bam	097b0a484b7423545daba56e27220bc8
GS02320-DNA_E01.bam	55332e613af85e2680db962c70013ab3
GS02320-DNA_F01.bam	7083ef18b559d6eefcafcc0904789e82
GS02320-DNA_G01.bam	7b954858b0aefc401e7822b77c7943bf
GS02321-DNA_A01.bam	5a96718d751a4a14bf7962aaf6911567
GS02321-DNA_A02.bam	9c148a46def044b474cb1c195d92febb
GS02321-DNA_B01.bam	3c1570cad2f81cc9bcbaec3cb79410fd
GS02321-DNA_B02.bam	caadfffd0684042017cc9eb095d89965
GS02321-DNA_C01.bam	cd7427bafa1fb15fc259bf75f7f5eace
GS02321-DNA_C02.bam	3ec51e651004f6218b500f2ef7471e6a
GS02321-DNA_D01.bam	d245f18b748369e6191dd1984837dfdf
GS02321-DNA_D02.bam	c2f1c87b16f802a0c980f4019f84da93
GS02321-DNA_E01.bam	ab4f8575c2f529e0cecb30178fef0b0f
GS02321-DNA_E02.bam	088c634d73834e8d68ced62f5b79e866
GS02321-DNA_F01.bam	e25633c2d8b2886ad4e5954eb7bf2ff5
GS02321-DNA_F02.bam	236986bab4a61461c4dd7e56c97abadf
GS02321-DNA_G01.bam	1139d9f57919124f876e01453ebc47a7
GS02321-DNA_H01.bam	269d966e7bbfea9deb31c46b123dccf4
GS02322-DNA_A01.bam	6c9e4cac7d7870d309bfc6c69c2ccb27
GS02322-DNA_A02.bam	24c5ebb6205aafcc5fc81fa41385c589
GS02322-DNA_A03.bam	46d1f3cd2e90e03da076da1292240aed
GS02322-DNA_A04.bam	ac47cd6b53129d470f5a6ce37d0e9d9c
GS02322-DNA_A05.bam	25ee3c94d101bef5db728874e8f690c8
GS02322-DNA_A06.bam	c3b2cf08337f27382a0bcade79d20ced
GS02322-DNA_B01.bam	c8dfe90896f0d99a983eb956652f6f25
GS02322-DNA_B02.bam	9e29d7617bcabfe90a7b80d27f06282a
GS02322-DNA_B03.bam	b05d0f8474f3516ad652aab449a12573
GS02322-DNA_B04.bam	ede8560877178846221f7debd4c8a340
GS02322-DNA_B06.bam	c2b02a6435e91e3b0d5ff2274c1a229a
GS02322-DNA_B07.bam	628e75ec4fd94c6b026fd1b3afdd3c3c
GS02322-DNA_C01.bam	0bdb4625ac5b728896b57b814041679c
GS02322-DNA_C02.bam	d742b287fdba3bad656eec8ae259def1
GS02322-DNA_C03.bam	a069639d30a2495ad55ac9fedd19fbf0
GS02322-DNA_C04.bam	735538b635fe8cc0797e2281bd5bef05
GS02322-DNA_C05.bam	666333e2aac2bce78e2101418b391174
GS02322-DNA_C06.bam	b557fab8972c7431e768dea772d1dc91
GS02322-DNA_C07.bam	8f55ab3eb908734a238358fcf6999530
GS02322-DNA_D01.bam	7329832339544bd3cc89b52b469c3943
GS02322-DNA_D02.bam	3d85fa6eb8d00091d43ddabd6540b46b
GS02322-DNA_D03.bam	6d20406565efe0ff742eb664a75412b9
GS02322-DNA_D04.bam	ad3740014ada16d3d8dc222ac64437d5
GS02322-DNA_D05.bam	1cffc2e3351df2d23644b5835ee08ed1
GS02322-DNA_D06.bam	a0dfa4cfff69382b337ce8feec49077c
GS02322-DNA_E01.bam	ae60bd3b394678d6f815a59022b17db1
GS02322-DNA_E02.bam	f4740f7ded4fdac67331fe6cbf234f6d
GS02322-DNA_E03.bam	7808db11c79c650b5bf77aa3d0e2949b
GS02322-DNA_E04.bam	e64fe8468c2e9b96a1a5ca31c0493a7e
GS02322-DNA_E05.bam	daabd8ebff861f6970472204797d0a93
GS02322-DNA_E07.bam	62ded8282f62032b1405fa3093034fea
GS02322-DNA_F01.bam	13be59f24ec2455e702dffd265ecc5d9
GS02322-DNA_F02.bam	7434e3cf4c74430a66a88d263ecdc2db
GS02322-DNA_F03.bam	e69182c92e436378548dfcf771c2f21e
GS02322-DNA_F04.bam	2eea54ae6722b74ecc85ec7b95f6cfcb
GS02322-DNA_G01.bam	31e1e2a5616f13529811fbaa7ec997b5
GS02322-DNA_G02.bam	e0f3431a59affb658309db37b1b50061
GS02322-DNA_G03.bam	d5fa9c1c48245f648e2fc7f7f5819bbe
GS02322-DNA_G04.bam	5f6a5da0510ad1295be0caac2d58e247
GS02322-DNA_G06.bam	f54b68b8d438b7b14f8821483110cb20
GS02322-DNA_H01.bam	d1aaa48e4f77a0c2a6b0f321661ccdfc
GS02322-DNA_H03.bam	c78f3225150c2f48161bab4da2aecd7b
GS02322-DNA_H04.bam	b9ac29c94152a360e751c07b1c4fd1a5
GS02322-DNA_H05.bam	8f5dc8002fdb7b4964eec4432c36bae8
GS02322-DNA_H06.bam	7b01754124d2416097982ce103930ccf
GS02323-DNA_A01.bam	5111529cafd830c0bd4078bc1b33c211
GS02323-DNA_A02.bam	3c597467a6639abd5dd14b295c97f583
GS02323-DNA_A03.bam	b7727f218b772d733d157e60c918a2aa
GS02323-DNA_A04.bam	610c5032833eb754f319fdac3afc01d0
GS02323-DNA_B01.bam	1d1f42837b3e93a4849192b62587143b
GS02323-DNA_B02.bam	06c10688aba906f3e4c0d455d2f8e1de
GS02323-DNA_B03.bam	fe0eba0361b6133a884fd0c07e24a150
GS02323-DNA_B04.bam	9ed54f832438de390906e28132afd218
GS02323-DNA_C01.bam	524e00ae3ebda25b40024a59a5ea6fc5
GS02323-DNA_C02.bam	f9fbdcc2248f783306f3f4d1d999b400
GS02323-DNA_C03.bam	a55305d12bc9fc3df3d1d8fa76a83c02
GS02323-DNA_C04.bam	c3034c28f40bee28a568fa78a32443c1
GS02323-DNA_D01.bam	5cb38264d3ccd05d4476f659c0b7ecd5
GS02323-DNA_D02.bam	2f169e4e7f251dac7dc91cd197894b68
GS02323-DNA_D03.bam	b990b82a916f07433cd14f566a3072c9
GS02323-DNA_D04.bam	b73cbb4d0f98443ae81e5ffb2ccecc70
GS02323-DNA_E01.bam	7f2b71284f93b42284d3fb3573b8bdfe
GS02323-DNA_E02.bam	3741db65ae7da8afacdec8baec019bc6
GS02323-DNA_E03.bam	dc13efb74f887d5eb1f56e882145d7d1
GS02323-DNA_F01.bam	51931cec7ad9dd96cd0d03c335b59fd4
GS02323-DNA_F02.bam	46f98ee1c8cc3034ec853f9cb65c550e
GS02323-DNA_F03.bam	46134560ed3e0545720d701bd2a192ac
GS02323-DNA_G01.bam	12d6606deaf144f15307ea485294f64b
GS02323-DNA_G02.bam	674d8b4cdd88fbd79a5a2d37519e9219
GS02323-DNA_G03.bam	00099f28266db049e4dfd709f3777344
GS02323-DNA_H01.bam	acd242a283e251919e57951a652dc2c9
GS02323-DNA_H02.bam	ba1a2704e66b112ad72d10dc82fb8298
GS02323-DNA_H03.bam	2c65437cf6130062c1052c7abd1ad467
GS02324-DNA_D01.bam	a867a2b96f415f6fd0ee8dc4700df706
GS02324-DNA_E01.bam	aee6f84dd76934dc28fb54daccf25cb0
GS02325-DNA_A01.bam	d906a6194672d94a95bc44c664076ee2
GS02325-DNA_A02.bam	70833df527b220cf3aafe380f4179df4
GS02325-DNA_A03.bam	345ed6f38cc6e98b921b1d8807dc365b
GS02325-DNA_A04.bam	fdbb6e28ab18c9af88bf357e076b52df
GS02325-DNA_B01.bam	7b6dbb8ceca17f9a83c1cf2d6b5eb7f2
GS02325-DNA_B02.bam	37b3e93aec825af8a2440ae66d0beaa2
GS02325-DNA_B03.bam	103d6c75af6695a42be5f3e876b99b65
GS02325-DNA_B04.bam	6630bd563ddc376a41aa543dd5c3047f
GS02325-DNA_C01.bam	de774c84cc54a95d4aee6831a8cd6d5f
GS02325-DNA_C02.bam	449ff7de96058da51b7c6fec9fa6aac8
GS02325-DNA_C03.bam	4cdda697b23454be14c45f27babd9879
GS02325-DNA_C04.bam	8c5d6780cfb5f0e2b4259098f07ebb05
GS02325-DNA_D01.bam	4bb96d6c2582788fd28b12fc302c492d
GS02325-DNA_D02.bam	a886ddbc4a136eff46cd0cfc0410dcbb
GS02325-DNA_D03.bam	0f945d55de5d22145075895fd3245760
GS02325-DNA_D04.bam	6f4c1925b1b10eed5b73fb2e795c1bd0
GS02325-DNA_E01.bam	16e91d0dde63931b12484e84651aaae2
GS02325-DNA_E02.bam	a30406935efb7a1373e6202372d550f3
GS02325-DNA_E03.bam	db20c532f519237c8f1b89e9941d0713
GS02325-DNA_F01.bam	59d8208166aa0d85a212236dae3e5711
GS02325-DNA_F02.bam	b5b109274992192283e20ea4d87cc201
GS02325-DNA_F03.bam	52a2b78927f1b995e37c5adcf9778f65
GS02325-DNA_G01.bam	56555af0f2e912ffe3658e22530e7f9a
GS02325-DNA_G02.bam	647f299a4db2e4197d7b2674aef89524
GS02325-DNA_G03.bam	88a251d98b5d570f22085deb966f9e16
GS02325-DNA_H01.bam	39830bd64cf2cafe5e76c23d9e3c419a
GS02325-DNA_H02.bam	04403d04186fba8f52869e5a46fbbc7f
GS02325-DNA_H03.bam	8c9e0eaa694747e25907fde2f6eaf358
GS02326-DNA_A01.bam	9892c042f79524a695b3cae340efdf94
GS02326-DNA_B01.bam	fbef14a140bf49b4b27f4d50aa6d9739
GS02327-DNA_A01.bam	99cb3f54565ab707a1111812f470bb86
GS02327-DNA_A02.bam	ce10f32a3b816be5b5c5ca923a7178fd
GS02327-DNA_B01.bam	ef8484ec80930982e7169570a1877aa8
GS02327-DNA_B02.bam	48766292e6ad743b84faf8564961192d
GS02327-DNA_C01.bam	db487d25049c012bdaced0976afab9c3
GS02327-DNA_D01.bam	b69b3fd511a72335fc7d54f45dde3878
GS02327-DNA_E01.bam	af1ddc878216a8616821e76b4a575000
GS02327-DNA_H01.bam	df1ffc0a3255bf1e6951154f902ca570
GS02328-DNA_A01.bam	efdb7c94c461904271134fa13a8c391a
GS02328-DNA_B01.bam	e10acd06c1b26c0e1d706fcc212c7ea4
GS02329-DNA_A01.bam	fa871b326eee7c878095ca92399f3a75
GS02329-DNA_B01.bam	0ad21f290daed0e11f3d3c5a0954bd78
GS02330-DNA_B03.bam	eeb9b761e9d52c58d6d75a1e2df01bf8
GS02330-DNA_C01.bam	60aee1f0751786222a283e1436fd8ba9
GS02330-DNA_D01.bam	c2e8857cdd133bfaf6d875e60268468a
GS02330-DNA_E03.bam	e1cc667d68adf5dba452d906eda9168e
GS02330-DNA_F02.bam	1814c38e8945418f4d4a74a6f5b9c971
GS02330-DNA_H04.bam	c085582e0f8ba835e920d6509fd4e35b
GS02331-DNA_B01.bam	274e728a2feed2d5525f370e5dc6b5ff
GS02331-DNA_C01.bam	a8db41d55d83b36a6c414f6efaa97eca
GS02331-DNA_D01.bam	a7106771d1b51c60e38762c3b3fe4621
GS02331-DNA_E01.bam	4e4ae0b76d5dce3141044ee0d119602f
GS02331-DNA_G01.bam	6c5a359944b2f1888986f0897c6523e5
GS02571-DNA_B01.bam	b0e1d3628da2634276cdba7d273043c8
